{
"type": "FeatureCollection",
"name": "IS_micro-regions",
"crs": { "type": "name", "properties": { "name": "urn:ogc:def:crs:OGC:1.3:CRS84" } },
"features": [
{ "type": "Feature", "properties": { "id": "IS-VN" }, "geometry": { "type": "MultiPolygon", "coordinates": [ [ [ [ -22.985742945060778, 66.051593287721019 ], [ -22.9854057882932, 66.050152091079894 ], [ -22.984917285892781, 66.048829847776233 ], [ -22.984590889023636, 66.047457405847766 ], [ -22.984430717105759, 66.046425914459533 ], [ -22.984344761985728, 66.045507581701912 ], [ -22.98411594972216, 66.044760529600168 ], [ -22.983845780707046, 66.04405497085547 ], [ -22.98373023370624, 66.043310628678341 ], [ -22.983552481954902, 66.042503827320459 ], [ -22.983476561710493, 66.042014695652966 ], [ -22.983645691576061, 66.041412508610037 ], [ -22.983929371916016, 66.040871446011337 ], [ -22.98409848503691, 66.040269267113544 ], [ -22.98402586017512, 66.039801390151439 ], [ -22.983698309778838, 66.039382768246142 ], [ -22.983220422143393, 66.039010699345638 ], [ -22.982752447818353, 66.038702429627108 ], [ -22.982379208355592, 66.038327674570397 ], [ -22.982237825747177, 66.03775480901372 ], [ -22.982315559585849, 66.037240378425778 ], [ -22.982674614572325, 66.036846841334651 ], [ -22.983229664078706, 66.036362862914189 ], [ -22.983745577918047, 66.035965298345033 ], [ -22.984366108188055, 66.035565046952712 ], [ -22.985202395696554, 66.035201960899855 ], [ -22.98615649696637, 66.034921248544237 ], [ -22.986796758339821, 66.034648589054086 ], [ -22.987384714528147, 66.034377269891152 ], [ -22.987678126379077, 66.033899999855606 ], [ -22.987654463289257, 66.033409515715519 ], [ -22.987512968170428, 66.032836654251383 ], [ -22.987508567625802, 66.032132161152816 ], [ -22.987347288490643, 66.031431697408607 ], [ -22.987299519625541, 66.030946549270453 ], [ -22.987253702335305, 66.030152998482507 ], [ -22.987109508199847, 66.029900481610142 ], [ -22.987082535875658, 66.029388733147513 ], [ -22.987156845740095, 66.028853034278256 ], [ -22.987365453918581, 66.028506050908192 ], [ -22.987459568042134, 66.028097944180999 ], [ -22.987599353242089, 66.027645966416756 ], [ -22.988042364847161, 66.026780516908119 ], [ -22.988531058566011, 66.025871184506414 ], [ -22.98887935072473, 66.025072219956641 ], [ -22.988825945453808, 66.024390331856608 ], [ -22.988714199541072, 66.024008871412391 ], [ -22.988298724199847, 66.023699272290258 ], [ -22.987480988018433, 66.023165135978729 ], [ -22.986816832388666, 66.022605701779241 ], [ -22.986469628841267, 66.022059481180591 ], [ -22.986236893198761, 66.021574365962493 ], [ -22.986497174050136, 66.020884428399839 ], [ -22.986777266263971, 66.020322082644654 ], [ -22.986780017249423, 66.020001734915198 ], [ -22.98657699917727, 66.019708022765684 ], [ -22.98606367523978, 66.019443640056537 ], [ -22.985550361854671, 66.019179255620259 ], [ -22.985144899015864, 66.018933439549798 ], [ -22.985454674073793, 66.018562508619354 ], [ -22.986281035763653, 66.01847722489498 ], [ -22.987346181638085, 66.018577966880258 ], [ -22.98821215860589, 66.018747876859706 ], [ -22.989836323363388, 66.01906910602365 ], [ -22.991162852731261, 66.019163092403531 ], [ -22.992567471676971, 66.019084257850238 ], [ -22.9936743663302, 66.018778190175439 ], [ -22.994764701114796, 66.018365795277617 ], [ -22.995779585246744, 66.01780585579543 ], [ -22.997401734502475, 66.017102160205667 ], [ -22.998573299067225, 66.01653817135616 ], [ -23.000560396869481, 66.015483391585917 ], [ -23.002759668926629, 66.014444465469836 ], [ -23.004488463222412, 66.013417639994188 ], [ -23.005946703979355, 66.012675364197165 ], [ -23.007509372460394, 66.011930374390715 ], [ -23.009115064611027, 66.011461841003879 ], [ -23.010685073309773, 66.011100968093032 ], [ -23.012417515811389, 66.010436939106512 ], [ -23.015499737683243, 66.009380407694096 ], [ -23.018815540839203, 66.008162620546642 ], [ -23.023025204006288, 66.006478643256855 ], [ -23.026609323159001, 66.004663147000841 ], [ -23.029893253472927, 66.003249061530653 ], [ -23.033071800545695, 66.001936066638365 ], [ -23.034385600722732, 66.001065248007208 ], [ -23.034864390291222, 66.000265354111008 ], [ -23.034974348299933, 65.999425851505606 ], [ -23.036203284579333, 65.998015857428598 ], [ -23.038056962357103, 65.996737221642491 ], [ -23.039662075618466, 65.995415821002027 ], [ -23.041837904423456, 65.99388266627976 ], [ -23.043194265418656, 65.99251848906168 ], [ -23.045482255924885, 65.990933118952555 ], [ -23.048430164882184, 65.988936753052471 ], [ -23.049906206779966, 65.987569371596294 ], [ -23.05178610193693, 65.985699253297653 ], [ -23.057563322645414, 65.980971008972446 ], [ -23.063520606567167, 65.976631493593743 ], [ -23.067598226196115, 65.974162067449072 ], [ -23.072516715266694, 65.971670409681209 ], [ -23.07544099736527, 65.970313839288977 ], [ -23.077577772530233, 65.969322466579953 ], [ -23.078046867175782, 65.968473424564934 ], [ -23.078267732827484, 65.967581700662734 ], [ -23.078399434717515, 65.966889185694981 ], [ -23.077712959379959, 65.966365882004652 ], [ -23.076402206805128, 65.96571135187439 ], [ -23.07501785113757, 65.965354063176491 ], [ -23.073199271460105, 65.965303482642867 ], [ -23.070578012134003, 65.965520072639734 ], [ -23.068243603319075, 65.966024373790844 ], [ -23.066300691889065, 65.966715233073458 ], [ -23.063861352598064, 65.967320652230697 ], [ -23.061033822546651, 65.968526811500112 ], [ -23.059024435739961, 65.969563828070719 ], [ -23.056510778720057, 65.970466365718281 ], [ -23.05426058327042, 65.971509609459886 ], [ -23.052506589410225, 65.972638264443574 ], [ -23.051008392097753, 65.97385863678906 ], [ -23.048389205393793, 65.974862214698007 ], [ -23.045805298617033, 65.975323456670452 ], [ -23.043303025143345, 65.975536443970569 ], [ -23.040401495811288, 65.975513727477463 ], [ -23.038267627684256, 65.975766236941197 ], [ -23.036036544472697, 65.976168894856556 ], [ -23.033828443087749, 65.976718556760261 ], [ -23.032741036544429, 65.977485087939016 ], [ -23.032068150597187, 65.978585334845249 ], [ -23.031981253768077, 65.979571887655823 ], [ -23.032429213986958, 65.980889024095504 ], [ -23.033537495282019, 65.981795250092887 ], [ -23.034374522417707, 65.982511673084716 ], [ -23.034392600608992, 65.983397073052686 ], [ -23.033079701871397, 65.984267898482855 ], [ -23.030451077693389, 65.985222154018544 ], [ -23.027791555943992, 65.985980304100607 ], [ -23.021445180389822, 65.988655046253911 ], [ -23.015683827458911, 65.991215907273585 ], [ -23.008809565113264, 65.994395870618533 ], [ -23.001249576733255, 65.997839237375999 ], [ -22.995357672457253, 66.001140779437563 ], [ -22.988763397231732, 66.003820370781 ], [ -22.982513763428599, 66.006392369865495 ], [ -22.977436748883402, 66.008737178466404 ], [ -22.972389926147706, 66.012065230978962 ], [ -22.969803111139978, 66.014887261951685 ], [ -22.967501394744456, 66.017209831858878 ], [ -22.965711442987416, 66.019716119409878 ], [ -22.963567249791108, 66.022280624443709 ], [ -22.96231098757859, 66.024330331546395 ], [ -22.961935845875249, 66.026603575817077 ], [ -22.961876810510098, 66.028573484546229 ], [ -22.962167453541213, 66.030457116848922 ], [ -22.918118648567681, 66.019967887143409 ], [ -22.9179432658526, 66.019748556107388 ], [ -22.917695696475828, 66.018918261727393 ], [ -22.917749731737771, 66.017686692544075 ], [ -22.917600230580764, 66.016706304856484 ], [ -22.91705290001466, 66.014702590017322 ], [ -22.916919276102131, 66.013032879876761 ], [ -22.917477522779159, 66.011936202049284 ], [ -22.917328065406224, 66.010955811593305 ], [ -22.917058186153401, 66.009978461886689 ], [ -22.916562409754007, 66.009105224405786 ], [ -22.916698676775443, 66.008412870549307 ], [ -22.917407162384752, 66.007509229470571 ], [ -22.918679479696415, 66.007132626827413 ], [ -22.920832052615662, 66.006979806850964 ], [ -22.923127465283475, 66.006970970489931 ], [ -22.925046649315107, 66.006873203668533 ], [ -22.926770530727531, 66.006288274191874 ], [ -22.928065651653053, 66.005271299745289 ], [ -22.929594006802333, 66.004199183168723 ], [ -22.931099724186073, 66.002980002074707 ], [ -22.933395546515431, 66.001396303129638 ], [ -22.935698589379879, 65.999861579525685 ], [ -22.937023081419795, 65.999040595422471 ], [ -22.937587697642151, 65.99799285735017 ], [ -22.938430760209055, 65.9963967408803 ], [ -22.939243700096426, 65.994604532094073 ], [ -22.940049017544176, 65.992763307312316 ], [ -22.940493005937036, 65.99171861542581 ], [ -22.940621188785549, 65.990189847658783 ], [ -22.939944954073532, 65.987352861562911 ], [ -22.938456729219727, 65.984733354002302 ], [ -22.937119094872518, 65.982306860493523 ], [ -22.93567610294701, 65.980768802181188 ], [ -22.933158210104082, 65.979307236672739 ], [ -22.928784509172186, 65.976760891577399 ], [ -22.927748048707343, 65.975507724693045 ], [ -22.926531567130827, 65.973865445817808 ], [ -22.925180052611143, 65.972128153534555 ], [ -22.923715245025182, 65.971230290880499 ], [ -22.921780551629826, 65.950611252901226 ], [ -22.926970747907117, 65.949052539369191 ], [ -22.932603460576516, 65.94723634391535 ], [ -22.936515826383552, 65.946005014476313 ], [ -22.943461204251506, 65.942531015189715 ], [ -22.945825951284736, 65.941437275236808 ], [ -22.947214643808916, 65.940269988614631 ], [ -22.948242936272845, 65.939111885470709 ], [ -22.949946472002388, 65.93685387856371 ], [ -22.95101943976756, 65.935202488375751 ], [ -22.951582069174666, 65.934154671248422 ], [ -22.951934597306508, 65.933309067858843 ], [ -22.952879921565707, 65.932399098817186 ], [ -22.954890678351354, 65.931363451777301 ], [ -22.958176736931762, 65.929999859258103 ], [ -22.961485046364604, 65.928783254979564 ], [ -22.965115476971011, 65.927312246624822 ], [ -22.969195424292121, 65.925632749130486 ], [ -22.973199328565514, 65.923462960188488 ], [ -22.97594288330248, 65.921719171664364 ], [ -22.978423369507269, 65.91983446355782 ], [ -22.980198642846361, 65.918066286782903 ], [ -22.981433183847582, 65.915918312549266 ], [ -22.982472995262565, 65.914070614581746 ], [ -22.98359590575885, 65.912762124947136 ], [ -22.98419459954199, 65.911959264403805 ], [ -22.984576042656968, 65.911309654333266 ], [ -22.98424526233164, 65.910727615681083 ], [ -23.046666612567869, 65.829740688628121 ], [ -23.050760515157108, 65.828292812266184 ], [ -23.055681431702787, 65.827158107510769 ], [ -23.060316331691293, 65.826578993130752 ], [ -23.065301959583046, 65.82630392837477 ], [ -23.07225458283359, 65.825759539146901 ], [ -23.077647897851318, 65.825556700138421 ], [ -23.083187138749039, 65.825349791711758 ], [ -23.090266239079806, 65.824680993177395 ], [ -23.098846755557869, 65.823310611659309 ], [ -23.108245313718889, 65.821557206289754 ], [ -23.11776955368078, 65.819679601242797 ], [ -23.126940408058083, 65.818351893104776 ], [ -23.13605997921249, 65.81762617964732 ], [ -23.144107176527481, 65.817529981405613 ], [ -23.15287451557035, 65.817353807698581 ], [ -23.162576833033629, 65.816610772026209 ], [ -23.173816478746986, 65.815404590324178 ], [ -23.183498999206396, 65.813638676304421 ], [ -23.193617936262111, 65.811860224705299 ], [ -23.204066215057502, 65.810312563211312 ], [ -23.214430754218352, 65.809453293719628 ], [ -23.220651601926999, 65.809230389894083 ], [ -23.226681688739433, 65.809012481240188 ], [ -23.231516741263967, 65.808905778840725 ], [ -23.23760550127307, 65.808266718126575 ], [ -23.242477248496265, 65.807215679600716 ], [ -23.246708796095117, 65.806155956537879 ], [ -23.251232077770538, 65.80493088292215 ], [ -23.257063727418203, 65.803512289646477 ], [ -23.262777073672158, 65.802542046968071 ], [ -23.269494680639905, 65.801858040618129 ], [ -23.275551745816429, 65.801427848944883 ], [ -23.280092236158549, 65.80109200835399 ], [ -23.284921299631272, 65.800957556089614 ], [ -23.289953873067617, 65.80089586437272 ], [ -23.295901893051973, 65.800965612630549 ], [ -23.305738814009949, 65.801004897728774 ], [ -23.312741014500052, 65.800887309888139 ], [ -23.320395936714647, 65.800855845818177 ], [ -23.32827191424979, 65.801001159923544 ], [ -23.337131611859355, 65.801301710015551 ], [ -23.342985432254952, 65.801948627208276 ], [ -23.347450439031526, 65.802686989008365 ], [ -23.35272200443292, 65.80366437674526 ], [ -23.356688000525434, 65.804468996645426 ], [ -23.361447533089162, 65.805434401481776 ], [ -23.365834909639076, 65.806462631226523 ], [ -23.369378900106049, 65.807409909927316 ], [ -23.374036238618508, 65.808142085094545 ], [ -23.379934019277645, 65.808655428139488 ], [ -23.385351846594368, 65.808972655758566 ], [ -23.390743278146314, 65.809133254589469 ], [ -23.396112645080549, 65.809163315241321 ], [ -23.401595842882777, 65.809111324897231 ], [ -23.407582956388218, 65.809018515170976 ], [ -23.413330527510752, 65.808644150752926 ], [ -23.418619734638359, 65.808204141806229 ], [ -23.426123981938876, 65.807647837478584 ], [ -23.434113925955199, 65.806946153661954 ], [ -23.441386618577614, 65.806159962641544 ], [ -23.44798230994255, 65.805523983161905 ], [ -23.452317218949204, 65.805110374327953 ], [ -23.455789381408252, 65.804878832240462 ], [ -23.458013187094185, 65.804814396367135 ], [ -23.459143373121009, 65.804703032467685 ], [ -23.460269081298922, 65.80456559154338 ], [ -23.461440344763641, 65.804322027362517 ], [ -23.462534555822597, 65.804002085073364 ], [ -23.463270026070596, 65.803823536635122 ], [ -23.463982996818348, 65.803514645313996 ], [ -23.46471395062246, 65.803310030894011 ], [ -23.466116746498177, 65.802928696578164 ], [ -23.468154831671445, 65.802528893437156 ], [ -23.470360406266412, 65.802360007735331 ], [ -23.472152763149676, 65.802386496372733 ], [ -23.474063168360665, 65.802357132815246 ], [ -23.475224713465924, 65.802428142756298 ], [ -23.476241211005732, 65.802398561568197 ], [ -23.477357693320538, 65.802208860996814 ], [ -23.478179075811902, 65.80215874791611 ], [ -23.479218482175323, 65.80189267175038 ], [ -23.480185346720482, 65.801576303339218 ], [ -23.48123410328374, 65.800995534527587 ], [ -23.484370450662478, 65.79993467696076 ], [ -23.486258385831068, 65.79940800168761 ], [ -23.487801260248176, 65.799100973787006 ], [ -23.488813338085198, 65.798678419531484 ], [ -23.489543958204312, 65.798473678000633 ], [ -23.49041967382669, 65.798369501662805 ], [ -23.49173978309377, 65.798619165840535 ], [ -23.493314000860654, 65.798861385637579 ], [ -23.494420972866124, 65.798986241214706 ], [ -23.49519225497389, 65.799016095828421 ], [ -23.496322051978858, 65.798904467285965 ], [ -23.497497247545581, 65.798686695609376 ], [ -23.499289494556518, 65.798346045134949 ], [ -23.500650650642683, 65.798096607076076 ], [ -23.501694215945829, 65.797856445216951 ], [ -23.504162288576282, 65.797731771491314 ], [ -23.506888961697843, 65.797625668943866 ], [ -23.509946809408532, 65.797588421979 ], [ -23.511593671042014, 65.797513911067085 ], [ -23.513834877665452, 65.797552944919971 ], [ -23.516438996160119, 65.797476478201503 ], [ -23.517967904669188, 65.797457763037812 ], [ -23.519179237394489, 65.797448366584888 ], [ -23.52051304052786, 65.797409159986557 ], [ -23.521837738524084, 65.797317809113053 ], [ -23.523398275610852, 65.797114689927611 ], [ -23.524414509763005, 65.797084790830567 ], [ -23.525920853211133, 65.797302480581379 ], [ -23.527281976233422, 65.797419621755793 ], [ -23.528810875109368, 65.797400807907366 ], [ -23.529813436964499, 65.797292665778741 ], [ -23.531119855295131, 65.797096961613349 ], [ -23.532838898315902, 65.796705660563504 ], [ -23.535097955473098, 65.796481833844851 ], [ -23.536930628614943, 65.796375366468823 ], [ -23.540482667613087, 65.796244304294845 ], [ -23.54251041123873, 65.796158209464764 ], [ -23.544302413751176, 65.796183867670706 ], [ -23.54600398576839, 65.796421795183079 ], [ -23.547424647344911, 65.796877638696088 ], [ -23.548840781165403, 65.797307403464401 ], [ -23.55002582113919, 65.797875000136472 ], [ -23.551197767995777, 65.798731215110138 ], [ -23.551920596484354, 65.799574517318902 ], [ -23.552457486282538, 65.800449522958218 ], [ -23.552849046228292, 65.801224016872098 ], [ -23.553294981090513, 65.801944489213582 ], [ -23.553767791279597, 65.802454547370829 ], [ -23.554503897482245, 65.803009218598476 ], [ -23.555130656749604, 65.803305087651367 ], [ -23.556033790371547, 65.803356948313365 ], [ -23.557327257246961, 65.80344964017398 ], [ -23.558747778245973, 65.80353855543504 ], [ -23.559832335240539, 65.803532605031819 ], [ -23.56086253095927, 65.803580670646951 ], [ -23.561942475489037, 65.803548640892586 ], [ -23.562958917079211, 65.803518487564872 ], [ -23.563467115189155, 65.803503409033127 ], [ -23.564669522516745, 65.803441515774665 ], [ -23.566883737415935, 65.803323378502924 ], [ -23.568598940283749, 65.80327243634126 ], [ -23.570223877726736, 65.80343378782689 ], [ -23.571317608559877, 65.80347988694794 ], [ -23.572547614628363, 65.803574339080257 ], [ -23.573895465014477, 65.803612873647737 ], [ -23.575901607501081, 65.803762820323882 ], [ -23.577526621074632, 65.803924094754905 ], [ -23.578756670808072, 65.804018497299595 ], [ -23.579868904991322, 65.804168802409464 ], [ -23.580835640566058, 65.804218626043706 ], [ -23.581715796062994, 65.804140004486158 ], [ -23.582332609832594, 65.804016811307804 ], [ -23.582940169752518, 65.803841487343533 ], [ -23.583665577762869, 65.803610235514611 ], [ -23.584880695922234, 65.803259573311905 ], [ -23.586404163015462, 65.802847291930561 ], [ -23.588875791292526, 65.802380502310427 ], [ -23.590349489160293, 65.802048278994761 ], [ -23.592036805153224, 65.801840672966904 ], [ -23.593465411514465, 65.801614582257486 ], [ -23.595352491623959, 65.801453384790491 ], [ -23.59710326628527, 65.801243833515741 ], [ -23.598750108047167, 65.801168390904934 ], [ -23.600401570371076, 65.801118994670517 ], [ -23.602161545427492, 65.800961513853423 ], [ -23.603808354550878, 65.800886017160195 ], [ -23.605577563670565, 65.800780625071468 ], [ -23.607233625239463, 65.800757219419353 ], [ -23.608118221041916, 65.800704510715789 ], [ -23.608993535859682, 65.800599669471495 ], [ -23.609854900026676, 65.800416614897657 ], [ -23.610652764875461, 65.80023546809602 ], [ -23.611486280484936, 65.799896021600006 ], [ -23.612528868751728, 65.799655110012594 ], [ -23.613380914216833, 65.799419916677238 ], [ -23.61446841791863, 65.799072822441119 ], [ -23.615266187434454, 65.798891652306665 ], [ -23.615977232760201, 65.798582057252759 ], [ -23.617019726521828, 65.798341115150649 ], [ -23.617935191335622, 65.798103980626706 ], [ -23.618728280659024, 65.797896728354146 ], [ -23.61942687028117, 65.797875741546974 ], [ -23.620007749210529, 65.79791069477875 ], [ -23.620583981448437, 65.797919591356106 ], [ -23.621310475233443, 65.798054985388248 ], [ -23.621919269638582, 65.798246320647308 ], [ -23.622572970539029, 65.798331490909305 ], [ -23.623699153532648, 65.79855967951066 ], [ -23.625251322711506, 65.798670233882874 ], [ -23.627461890845769, 65.798891976371436 ], [ -23.629536144017649, 65.799065385750396 ], [ -23.630852962185102, 65.799287784959759 ], [ -23.63289173918232, 65.799619449178053 ], [ -23.634340315738967, 65.799864053898901 ], [ -23.635688062887159, 65.799902038956205 ], [ -23.636595904634852, 65.799979490307436 ], [ -23.637776477699017, 65.800153534377102 ], [ -23.638912210885536, 65.800433737313824 ], [ -23.640506591585297, 65.800778712252352 ], [ -23.641705893513244, 65.801056986851748 ], [ -23.643194776735665, 65.80116926844606 ], [ -23.64456597890873, 65.801337498201804 ], [ -23.645438440789199, 65.801573200492854 ], [ -23.646115685150267, 65.801788592758214 ], [ -23.646602382256464, 65.802009740157374 ], [ -23.646663185263382, 65.802348580486083 ], [ -23.646764137303435, 65.802555170180639 ], [ -23.64662034636024, 65.802821571887847 ], [ -23.645977765370276, 65.803155459890661 ], [ -23.645563124852629, 65.803692098982367 ], [ -23.644158233292817, 65.804048994680883 ], [ -23.642287193976689, 65.804655808575347 ], [ -23.640615991874057, 65.805308965651093 ], [ -23.639139944579512, 65.805982428157449 ], [ -23.637781530193298, 65.80659991089388 ], [ -23.637093868832167, 65.807039937623586 ], [ -23.636008171378982, 65.807754002338498 ], [ -23.635317588777646, 65.808534770470729 ], [ -23.634876442569748, 65.809281805902828 ], [ -23.634199805746793, 65.810140765421991 ], [ -23.633668834125586, 65.811100146384589 ], [ -23.633427562645352, 65.811893569509337 ], [ -23.633065616838518, 65.813083703366289 ], [ -23.633090720521977, 65.813580847339594 ], [ -23.632774762599563, 65.813957235946901 ], [ -23.632327022118776, 65.814311388121297 ], [ -23.632020372913018, 65.814739900848622 ], [ -23.631600614440448, 65.815250427492444 ], [ -23.631665916602717, 65.815615334922342 ], [ -23.633176012706183, 65.816198794192985 ], [ -23.634312422446154, 65.816479037621107 ], [ -23.635484371700151, 65.816600964266243 ], [ -23.63670589292175, 65.816642769173654 ], [ -23.63845918941534, 65.816799569953417 ], [ -23.640080733957131, 65.816934112099673 ], [ -23.641798592111574, 65.817249175337409 ], [ -23.643438888969111, 65.817487941364348 ], [ -23.645060504006324, 65.817622440033361 ], [ -23.646656001782347, 65.817967349730552 ], [ -23.648661011656362, 65.818457104779299 ], [ -23.650948395651906, 65.81909553360164 ], [ -23.652158049715997, 65.819425848776447 ], [ -23.653146300564639, 65.819946295754519 ], [ -23.654539394356689, 65.820585512679258 ], [ -23.655349015227735, 65.820823080134133 ], [ -23.656026844847894, 65.821038427245895 ], [ -23.656492663922648, 65.821496031947504 ], [ -23.656226417789053, 65.821792358689422 ], [ -23.656341593744354, 65.822077135778912 ], [ -23.656089431534642, 65.82245164779853 ], [ -23.655552255220233, 65.823018217872558 ], [ -23.655346969405954, 65.823653367355007 ], [ -23.654701355101754, 65.824328037548042 ], [ -23.654210997803741, 65.82515524146028 ], [ -23.653869143968315, 65.825742099698033 ], [ -23.653437617253772, 65.826541316479179 ], [ -23.653681997523574, 65.827189069609773 ], [ -23.654597598147816, 65.82765929522796 ], [ -23.656033874164869, 65.827825507084839 ], [ -23.659014831553279, 65.828049777247031 ], [ -23.661572095402899, 65.828050976912294 ], [ -23.66407518269887, 65.828106184057901 ], [ -23.66667006686265, 65.828315802416441 ], [ -23.670383488038048, 65.8287010984414 ], [ -23.672978482781787, 65.828910610601284 ], [ -23.67577607610632, 65.829533234767609 ], [ -23.677989708619521, 65.829754249472089 ], [ -23.679680561861158, 65.829912503643428 ], [ -23.680766172714193, 65.829905711597021 ], [ -23.68196952287547, 65.829842903601346 ], [ -23.683172868822187, 65.82978009515827 ], [ -23.684856526463083, 65.829545422697464 ], [ -23.686099819600873, 65.829350341893502 ], [ -23.687797613763081, 65.829193819933593 ], [ -23.689964063743425, 65.829154034382 ], [ -23.691685436168576, 65.829127784150543 ], [ -23.693840324704972, 65.82937657891523 ], [ -23.695823428830618, 65.829735405677155 ], [ -23.697594857847218, 65.830336532732119 ], [ -23.698516122285124, 65.830832556971629 ], [ -23.699446870503191, 65.831380697625207 ], [ -23.699678239960008, 65.831950194477628 ], [ -23.699850748863209, 65.832547684286524 ], [ -23.700183593415627, 65.833323742729974 ], [ -23.701800528073676, 65.834479894122381 ], [ -23.702314765687838, 65.83519798205603 ], [ -23.702541493189777, 65.835741413227893 ], [ -23.702415068191311, 65.836452861481504 ], [ -23.702196606347595, 65.837009879346013 ], [ -23.702242017901384, 65.83761125821573 ], [ -23.703026933481514, 65.838059008789756 ], [ -23.704365330973236, 65.838385027020038 ], [ -23.706226797905632, 65.838773674565417 ], [ -23.707622213562193, 65.839412406941136 ], [ -23.708143383911668, 65.839815787249975 ], [ -23.708516461197934, 65.840459560927627 ], [ -23.708800302418719, 65.841315723865193 ], [ -23.709117413996722, 65.842354316129246 ], [ -23.709621584155446, 65.844068573851501 ], [ -23.709967233425765, 65.845263543120382 ], [ -23.710562673463706, 65.846424658992916 ], [ -23.711261631711263, 65.847451571591748 ], [ -23.71213254716146, 65.848368391696724 ], [ -23.713215243212751, 65.849042862025286 ], [ -23.71461320630403, 65.849340783325985 ], [ -23.717995641560091, 65.849667338494896 ], [ -23.721337307834464, 65.850043732875207 ], [ -23.724592034919269, 65.849943950994472 ], [ -23.728544171343362, 65.849822694958206 ], [ -23.732996089780031, 65.849877491837773 ], [ -23.737035441196042, 65.850232126457527 ], [ -23.741359797614088, 65.85086514977894 ], [ -23.744394319309968, 65.852112329008392 ], [ -23.74718210888231, 65.853441218050335 ], [ -23.74803810192919, 65.85427768641749 ], [ -23.748597500211048, 65.85541088933735 ], [ -23.74874078517345, 65.856508990078666 ], [ -23.748406556302054, 65.857238313251173 ], [ -23.747808860217866, 65.857807991662369 ], [ -23.74685312825638, 65.858340752678757 ], [ -23.745986208944476, 65.859038540735966 ], [ -23.745688190000031, 65.859646912561061 ], [ -23.745407688074685, 65.86035060298137 ], [ -23.745342505000568, 65.860951803613318 ], [ -23.745805603436558, 65.861560695835095 ], [ -23.747216401145, 65.862547849135623 ], [ -23.748579135314724, 65.863272835244643 ], [ -23.750170410004568, 65.863966801362423 ], [ -23.751927655140918, 65.864607693636415 ], [ -23.753430202017771, 65.865136595882305 ], [ -23.754956523987378, 65.865484723221812 ], [ -23.758084983262638, 65.866008729336571 ], [ -23.762257812113738, 65.866323127879468 ], [ -23.765719643944589, 65.866304787780578 ], [ -23.768998659486147, 65.866469323591531 ], [ -23.77383402048136, 65.866851566577722 ], [ -23.778767404809557, 65.867762522665629 ], [ -23.786367146956259, 65.869033840361652 ], [ -23.79451295322821, 65.870908394146255 ], [ -23.800107997877198, 65.873039290041433 ], [ -23.807062066893241, 65.875482276923876 ], [ -23.814961375962142, 65.878338745524999 ], [ -23.819466002101706, 65.88041442195501 ], [ -23.824318635705485, 65.883188354220451 ], [ -23.828259723935211, 65.886877259465578 ], [ -23.831306798114795, 65.890416782327421 ], [ -23.833559416916867, 65.893183243478433 ], [ -23.833839296326531, 65.895834171618446 ], [ -23.833887961466999, 65.897251148712499 ], [ -23.833721061142104, 65.8986748857169 ], [ -23.833106390138347, 65.900023979789225 ], [ -23.832243010211464, 65.901203546509109 ], [ -23.832109021853245, 65.902803554000258 ], [ -23.831627240466442, 65.903705194656879 ], [ -23.83021576267927, 65.905433828597339 ], [ -23.829286040388535, 65.906260817846132 ], [ -23.828588429434394, 65.907169193737701 ], [ -23.828188988170133, 65.908511517572876 ], [ -23.828436572647522, 65.909833606170181 ], [ -23.828866865400997, 65.910972673575955 ], [ -23.828832760862628, 65.911948947392077 ], [ -23.828798653745878, 65.912925220807168 ], [ -23.828647859458741, 65.914437081059162 ], [ -23.829343535472319, 65.915833810379169 ], [ -23.83112141837622, 65.916662078785606 ], [ -23.8113899230956, 65.919998168945398 ], [ -23.7933349609375, 65.919433593750099 ], [ -23.675003051757798, 65.900833129882898 ], [ -23.638057708740199, 65.894165039062401 ], [ -23.633625875476216, 65.893484087052258 ], [ -23.633676073959478, 65.893162648049312 ], [ -23.633619041435406, 65.892105647317948 ], [ -23.633383319167141, 65.89116258957911 ], [ -23.632925319500057, 65.890090471763742 ], [ -23.632291648034691, 65.888779306730584 ], [ -23.631589016336651, 65.887823117673236 ], [ -23.63084285633018, 65.886623912796068 ], [ -23.630091901643269, 65.885397712007219 ], [ -23.629120553213468, 65.884422433459662 ], [ -23.627767743856666, 65.883540034123683 ], [ -23.626184869821422, 65.882854551098063 ], [ -23.623428470560469, 65.882285670393145 ], [ -23.620762364106643, 65.88184977154782 ], [ -23.617927313558543, 65.881581765107356 ], [ -23.615126134270835, 65.881502718853554 ], [ -23.61268392565238, 65.881575765781989 ], [ -23.609718474992253, 65.881691556627246 ], [ -23.607648175877099, 65.881617678774191 ], [ -23.605676179284192, 65.881350816823357 ], [ -23.603905643172059, 65.88072502139218 ], [ -23.602140006194006, 65.880126207776186 ], [ -23.600558043927499, 65.879440469673071 ], [ -23.599198191683982, 65.878883814989493 ], [ -23.59735236645832, 65.878205907055474 ], [ -23.595686693895004, 65.87779406892902 ], [ -23.593818280441194, 65.87736110735888 ], [ -23.592049541342359, 65.877115176486043 ], [ -23.590247232858317, 65.876680206690523 ], [ -23.589029333105685, 65.876173538900531 ], [ -23.588051461968455, 65.875523995052347 ], [ -23.587356790726357, 65.874974604576892 ], [ -23.586190631928858, 65.874384951751537 ], [ -23.585062880302054, 65.874011303901156 ], [ -23.583044899766005, 65.873854125050798 ], [ -23.581229676666553, 65.873718042719432 ], [ -23.578854096170609, 65.873788594915283 ], [ -23.575441816949386, 65.87399845176769 ], [ -23.572420641551904, 65.874169491316707 ], [ -23.569465416854584, 65.874338516520041 ], [ -23.566764589544391, 65.874445661463326 ], [ -23.564530432080449, 65.87456609192472 ], [ -23.562249344944046, 65.874796456476901 ], [ -23.560293413804537, 65.874990027324827 ], [ -23.558625263394291, 65.875310789429889 ], [ -23.556386941550514, 65.87578410025354 ], [ -23.5544594911666, 65.876139618841933 ], [ -23.552155022054965, 65.876614808091531 ], [ -23.550100190653758, 65.877001172348514 ], [ -23.548427027298128, 65.87729482017572 ], [ -23.546565333899881, 65.877648294418819 ], [ -23.545104354068751, 65.878017081609599 ], [ -23.543766361702001, 65.878707959686537 ], [ -23.542003760937199, 65.879248462981792 ], [ -23.541544109930324, 65.879335706548886 ], [ -23.473238442478149, 65.868840527965787 ], [ -23.47287051109334, 65.868511782120152 ], [ -23.471415813094957, 65.867386867891298 ], [ -23.468674968051918, 65.866109240315666 ], [ -23.465736469667963, 65.864837287518199 ], [ -23.462666317855771, 65.863569097527886 ], [ -23.460217474618897, 65.862825713660087 ], [ -23.458131207546661, 65.86226180130312 ], [ -23.455884390105204, 65.861919636502449 ], [ -23.453496388754253, 65.861527236469229 ], [ -23.451598137249928, 65.861283508205233 ], [ -23.450185784302494, 65.860781458684386 ], [ -23.448641560085246, 65.86028321247143 ], [ -23.447031431120632, 65.859786844759398 ], [ -23.445378632518747, 65.859427398847942 ], [ -23.442377859840256, 65.859323920168734 ], [ -23.439561054793128, 65.859133662175168 ], [ -23.436876213683004, 65.85893955556179 ], [ -23.433922934977097, 65.858725984347146 ], [ -23.430724406790127, 65.858627971151961 ], [ -23.428190117381778, 65.858537952295237 ], [ -23.425942816779887, 65.858575355616466 ], [ -23.423902640786412, 65.858661062952507 ], [ -23.422026725918556, 65.858932014752739 ], [ -23.420824263927269, 65.859265051476811 ], [ -23.418857910457636, 65.859782820388673 ], [ -23.417702864639118, 65.860005909461691 ], [ -23.415719305762842, 65.860035601323077 ], [ -23.413232445940718, 65.859835414728522 ], [ -23.411789665923951, 65.859744395998831 ], [ -23.406539682627468, 65.858990153002722 ], [ -23.405670796501528, 65.858640428075205 ], [ -23.403690364972874, 65.857909957890627 ], [ -23.401874165660004, 65.857364755065845 ], [ -23.399860167194962, 65.856825179357088 ], [ -23.398114699991332, 65.856305057287088 ], [ -23.396873956194305, 65.855634820566351 ], [ -23.395326472541139, 65.855109031521962 ], [ -23.3932697868253, 65.854706294396735 ], [ -23.390685542625789, 65.854318561956731 ], [ -23.386607395017101, 65.854109013677586 ], [ -23.382674978943786, 65.853976633767019 ], [ -23.378945014467153, 65.853865542082843 ], [ -23.375285606450582, 65.853779497391315 ], [ -23.371075763837972, 65.853573283349533 ], [ -23.368137356745862, 65.853439481512467 ], [ -23.367885754148894, 65.853436905843495 ], [ -23.255001068115199, 65.837219238281307 ], [ -23.225418090820298, 65.835128784179702 ], [ -23.218570000536864, 65.83883993430446 ], [ -23.216438502441299, 65.838669593809144 ], [ -23.211885172364131, 65.83836000274664 ], [ -23.208008774036191, 65.83814032796171 ], [ -23.202805174230065, 65.837902505025795 ], [ -23.199188254121335, 65.837648398584562 ], [ -23.195720757468038, 65.837498676030251 ], [ -23.192886023334051, 65.837575861298404 ], [ -23.190152205137714, 65.837867321050808 ], [ -23.188183193751858, 65.837975135386088 ], [ -23.186873447341227, 65.838065007092837 ], [ -23.18589327918675, 65.83814591215652 ], [ -23.185541456783685, 65.838426810503549 ], [ -23.185514871730192, 65.83867173761125 ], [ -23.185813555200038, 65.838880693064795 ], [ -23.18638907470794, 65.8391635268719 ], [ -23.187325174264288, 65.839219487094056 ], [ -23.188973391761781, 65.839174677713828 ], [ -23.190221656897812, 65.83911359585224 ], [ -23.191944547019826, 65.839120991361156 ], [ -23.194884601711433, 65.83969217916956 ], [ -23.196018357107242, 65.840149717623689 ], [ -23.196980659392647, 65.84077472468725 ], [ -23.197591417777204, 65.84127363442488 ], [ -23.199762692788067, 65.841594340180066 ], [ -23.201885642827556, 65.842024871966871 ], [ -23.204294343028167, 65.842583250841358 ], [ -23.206953733787081, 65.843053337702997 ], [ -23.209516503806821, 65.843336088592807 ], [ -23.2119957922155, 65.843512542313192 ], [ -23.215868624539802, 65.843705102267378 ], [ -23.219016168862158, 65.843917428490926 ], [ -23.224274078389353, 65.844478871216822 ], [ -23.22689428753236, 65.844705497644654 ], [ -23.228802450042988, 65.845033029762916 ], [ -23.230961166782635, 65.845272254597447 ], [ -23.233845280943566, 65.845491520038948 ], [ -23.236527170590513, 65.845689157856285 ], [ -23.239429093577883, 65.846016373151272 ], [ -23.241548634016247, 65.846419344912206 ], [ -23.24392758365191, 65.846788009553478 ], [ -23.245730249719809, 65.846874028188594 ], [ -23.248368011586322, 65.846801326624956 ], [ -23.250601194446361, 65.846685469148284 ], [ -23.252814841123278, 65.846557403128728 ], [ -23.262719795451915, 65.848294315749186 ], [ -23.26392680153532, 65.848759533055897 ], [ -23.265063066317342, 65.849623578051876 ], [ -23.265500675272243, 65.850669771677957 ], [ -23.265889287956977, 65.851418824401875 ], [ -23.266875987703649, 65.852178455641948 ], [ -23.268565982003686, 65.8527829250948 ], [ -23.270563536179527, 65.853243166825621 ], [ -23.272094980217023, 65.853689177472205 ], [ -23.273745000427581, 65.854050477797301 ], [ -23.275231870544921, 65.854226333161876 ], [ -23.276898767012455, 65.854288634191448 ], [ -23.278609276726403, 65.854214024900969 ], [ -23.281058738461986, 65.854200282876718 ], [ -23.284286309995196, 65.85408346570064 ], [ -23.287954416625944, 65.854225691511559 ], [ -23.290294393340506, 65.854350532269294 ], [ -23.292829117242146, 65.85484982930808 ], [ -23.296261834003708, 65.855568292177551 ], [ -23.299808717517951, 65.856174951289304 ], [ -23.302730601117851, 65.856609021203838 ], [ -23.305916446234363, 65.857035665225439 ], [ -23.308358750896542, 65.857374480785097 ], [ -23.309930009439157, 65.857656203986522 ], [ -23.3113948024458, 65.857696654183613 ], [ -23.312414219803035, 65.85745104022169 ], [ -23.312944812427236, 65.85705627270346 ], [ -23.313042456015655, 65.856925042683017 ], [ -23.319508421677838, 65.857940048920696 ], [ -23.31932782797962, 65.858370100262732 ], [ -23.318771960818953, 65.859009837080038 ], [ -23.318631687045006, 65.86015354140649 ], [ -23.31948831785343, 65.860916529620596 ], [ -23.321457566964312, 65.86159405650659 ], [ -23.323147643230794, 65.861790912610317 ], [ -23.324947095318063, 65.861848994461766 ], [ -23.326391395465116, 65.862161261411941 ], [ -23.327138957321782, 65.86306296388328 ], [ -23.327984243990315, 65.864151875801809 ], [ -23.329330328328236, 65.865063906908347 ], [ -23.332414809964764, 65.86606278454579 ], [ -23.335779612928395, 65.866755208192458 ], [ -23.339904713923506, 65.867236201473276 ], [ -23.344539699935556, 65.867594171721422 ], [ -23.348526362404311, 65.86764463061813 ], [ -23.351953272344389, 65.867520816574867 ], [ -23.356294881867186, 65.867316810655296 ], [ -23.360809408722208, 65.86735203859638 ], [ -23.364664089289288, 65.867405813153852 ], [ -23.368946687362474, 65.867637340773413 ], [ -23.372264378722715, 65.867651862623532 ], [ -23.377905356114304, 65.86768178867321 ], [ -23.381087427338802, 65.867641595371069 ], [ -23.438613891601499, 65.877487182617202 ], [ -23.443543656190947, 65.878407902810295 ], [ -23.443883295039324, 65.879256353335691 ], [ -23.445058530580116, 65.880688109955372 ], [ -23.446069300911251, 65.881934612870566 ], [ -23.446660776201703, 65.883057490968739 ], [ -23.446921282996531, 65.884569881623989 ], [ -23.44720508246353, 65.886217296661911 ], [ -23.447875817522618, 65.887799285828422 ], [ -23.449509270029395, 65.889190672904633 ], [ -23.453699026819741, 65.890779701306556 ], [ -23.456768808321762, 65.891261050341271 ], [ -23.460706601427841, 65.891771539400025 ], [ -23.46488473384904, 65.892519253530324 ], [ -23.469520170340047, 65.89360646088528 ], [ -23.474170066048178, 65.89477454622245 ], [ -23.477716675268347, 65.895703092874413 ], [ -23.48058423903197, 65.896542708851129 ], [ -23.483093554100073, 65.897229820198319 ], [ -23.486933515685656, 65.897932517323184 ], [ -23.489377349012578, 65.898241456808663 ], [ -23.490920176093887, 65.898332292952844 ], [ -23.492231926077903, 65.898239842542637 ], [ -23.493656967080405, 65.898035513710653 ], [ -23.495445385729731, 65.897630592934789 ], [ -23.497531047465372, 65.897026992677496 ], [ -23.499833628824732, 65.896525608069922 ], [ -23.502796630987795, 65.896004922790198 ], [ -23.50613692083332, 65.895744590584428 ], [ -23.510963270888599, 65.895630770908383 ], [ -23.515218743399942, 65.895669205866355 ], [ -23.519950782787461, 65.895774990044856 ], [ -23.523833693625342, 65.895959814508089 ], [ -23.528754776479317, 65.896385521203399 ], [ -23.532572155237453, 65.896952062695732 ], [ -23.535295291628973, 65.897713529548497 ], [ -23.537665006011647, 65.898729635037171 ], [ -23.539709369801216, 65.899782420776631 ], [ -23.542221077371575, 65.900848578380845 ], [ -23.544284285257699, 65.901629311418759 ], [ -23.545851837251693, 65.902234616853846 ], [ -23.547508769399062, 65.902592980581701 ], [ -23.549575813492261, 65.902640659806494 ], [ -23.551298249571992, 65.902617038440596 ], [ -23.556550682503449, 65.90265212324482 ], [ -23.560652155518397, 65.902938187570413 ], [ -23.56522181723485, 65.903617469804004 ], [ -23.569783061759022, 65.904622608156515 ], [ -23.574719079461506, 65.906240847754276 ], [ -23.579953605690651, 65.908040099060528 ], [ -23.584702297628425, 65.909717901436593 ], [ -23.587666166168127, 65.911068572303677 ], [ -23.59060147673333, 65.91225716376438 ], [ -23.592980762693291, 65.913679413147307 ], [ -23.595363835990064, 65.914748631690998 ], [ -23.598180871918512, 65.915642029246101 ], [ -23.600383964114183, 65.916445084694558 ], [ -23.602101792262285, 65.91750687033246 ], [ -23.603923030466774, 65.918402694837212 ], [ -23.604880234456022, 65.919297112875753 ], [ -23.60551662825991, 65.920255381551343 ], [ -23.606127010194676, 65.921811625899338 ], [ -23.606798752439431, 65.923338894037443 ], [ -23.607422299370718, 65.924596133347862 ], [ -23.607996131631705, 65.925203369644095 ], [ -23.609537651665924, 65.925646013311976 ], [ -23.611035742618245, 65.925845628288357 ], [ -23.61270804995679, 65.925904300658104 ], [ -23.614527108100319, 65.926040010181367 ], [ -23.616504209125178, 65.92668674774626 ], [ -23.617744385282617, 65.92730119342599 ], [ -23.619207192998967, 65.928044705747325 ], [ -23.621345871680266, 65.928849435037634 ], [ -23.62382501241559, 65.929698235810349 ], [ -23.626786600266257, 65.930641152725087 ], [ -23.629151448512854, 65.931221846967532 ], [ -23.631405371366128, 65.932294463838119 ], [ -23.633615774749586, 65.933124041254146 ], [ -23.634888801110456, 65.933547360528749 ], [ -23.63664237722076, 65.933684792888073 ], [ -23.639023311874968, 65.933613353807203 ], [ -23.640833323712698, 65.933694752744699 ], [ -23.643154947682806, 65.934032228965876 ], [ -23.644991362942442, 65.934628573062668 ], [ -23.646790943716798, 65.935388876024518 ], [ -23.648069169788439, 65.935839086772731 ], [ -23.650278315103293, 65.936288433558232 ], [ -23.651659679466999, 65.93657263426303 ], [ -23.653055706185711, 65.936937822711528 ], [ -23.653731201360344, 65.937731894735805 ], [ -23.654852422735964, 65.938784013649808 ], [ -23.656953535530995, 65.940105230244015 ], [ -23.659228926723159, 65.941285428501331 ], [ -23.660953463028573, 65.941993567652659 ], [ -23.66272469822993, 65.942591693705054 ], [ -23.664300123006917, 65.94284279599313 ], [ -23.666414636036755, 65.943131909304981 ], [ -23.669577827951521, 65.944068011547486 ], [ -23.672648095362302, 65.94522404264093 ], [ -23.67590735413431, 65.946320011350693 ], [ -23.67881641712798, 65.947317915589053 ], [ -23.681938949775546, 65.948390761106097 ], [ -23.683868015796669, 65.949119632088923 ], [ -23.686373451658508, 65.950455417003553 ], [ -23.688991811761241, 65.951679144991544 ], [ -23.691230329206189, 65.952642886437573 ], [ -23.693017764573188, 65.953321659257057 ], [ -23.694689867750551, 65.953732434770544 ], [ -23.696388801714647, 65.95392519503288 ], [ -23.697614612047317, 65.954078010060982 ], [ -23.698727780275537, 65.954342829797795 ], [ -23.699382598128551, 65.954648715370396 ], [ -23.699831840351031, 65.955286621922426 ], [ -23.700362085507216, 65.956003510866793 ], [ -23.700907153660701, 65.956801392651627 ], [ -23.701670563146017, 65.957701221495583 ], [ -23.702774874748982, 65.95864499130208 ], [ -23.704266587510904, 65.959522680419056 ], [ -23.706440134373878, 65.960488212329523 ], [ -23.708324355005558, 65.961326780963404 ], [ -23.710152377385302, 65.962221337552009 ], [ -23.71198052663344, 65.963115872240294 ], [ -23.713467864178693, 65.963966464322652 ], [ -23.715968260146244, 65.964894778502071 ], [ -23.717715735961548, 65.965710269149568 ], [ -23.719225059147188, 65.966315816691235 ], [ -23.721396590887778, 65.966901150670935 ], [ -23.723579933648754, 65.967187460506082 ], [ -23.725768284183427, 65.967500736935094 ], [ -23.72773818906072, 65.967712061719567 ], [ -23.729146905196053, 65.968130553785329 ], [ -23.730782435732454, 65.969057931736145 ], [ -23.732260803605083, 65.969854346945652 ], [ -23.733812093934421, 65.970322741010477 ], [ -23.735409785419851, 65.970681105297899 ], [ -23.737125034449704, 65.970954409290485 ], [ -23.738641664793114, 65.971233776055016 ], [ -23.74005075048531, 65.971652168418288 ], [ -23.741493186887464, 65.972612512837102 ], [ -23.743632897944238, 65.973741526419829 ], [ -23.744495908901055, 65.974448110321191 ], [ -23.745521324645672, 65.975312599502203 ], [ -23.746985559092824, 65.976027891180607 ], [ -23.74846482934722, 65.976824158428968 ], [ -23.749598026275688, 65.977549582772042 ], [ -23.75115368354977, 65.978397784686877 ], [ -23.752323334256353, 65.978959177293461 ], [ -23.754317912036619, 65.979658132183246 ], [ -23.75575267865548, 65.98021136189098 ], [ -23.757538730864585, 65.980862385880158 ], [ -23.75945237535802, 65.981482311466166 ], [ -23.760779844264132, 65.982174547448864 ], [ -23.762076132776727, 65.983057781498175 ], [ -23.762868704485459, 65.983739301687351 ], [ -23.763538807129144, 65.984478885721245 ], [ -23.763938906983057, 65.985199623840273 ], [ -23.764959188740129, 65.986389969820834 ], [ -23.765853238977208, 65.98725840627344 ], [ -23.766906099225114, 65.987904752340484 ], [ -23.768224083840725, 65.988542931076253 ], [ -23.769908548674692, 65.989359864894837 ], [ -23.771175422477576, 65.990081046676906 ], [ -23.772498637019961, 65.990746184143489 ], [ -23.773729483611721, 65.991631359380207 ], [ -23.774685273777344, 65.992470704993451 ], [ -23.77558594333215, 65.993013085294052 ], [ -23.776298902243266, 65.993262606397721 ], [ -23.777659617894962, 65.993410698520748 ], [ -23.778704008902029, 65.993649987766602 ], [ -23.778911869689043, 65.994050829007548 ], [ -23.778894769428366, 65.994675811282619 ], [ -23.779739364746522, 65.995274211176394 ], [ -23.781027908554901, 65.995750307262227 ], [ -23.782316500019238, 65.996226392552074 ], [ -23.783242589299281, 65.996903712515888 ], [ -23.784357543823649, 65.997520895778536 ], [ -23.785682408422929, 65.997832935025514 ], [ -23.786589442595005, 65.998049270608078 ], [ -23.787236354498585, 65.9983007798524 ], [ -23.787423362691406, 65.998946612285309 ], [ -23.787462700242767, 65.999515555872833 ], [ -23.787654753410227, 66.000188382685735 ], [ -23.788143088730319, 66.000662001755757 ], [ -23.789552819355993, 66.001785905775677 ], [ -23.791197698809501, 66.00273962740701 ], [ -23.792990420235405, 66.00377021438787 ], [ -23.79479416365059, 66.004501778027247 ], [ -23.797414646666535, 66.004963697356857 ], [ -23.799989092689742, 66.005535604120311 ], [ -23.802696273819578, 66.006103358587453 ], [ -23.805327140283865, 66.00661913360689 ], [ -23.807713720518617, 66.006898085775234 ], [ -23.80988119428255, 66.007075198102157 ], [ -23.811808770533723, 66.007061584842788 ], [ -23.814071804643874, 66.009615843586644 ], [ -23.813839862587674, 66.010047534467233 ], [ -23.813185682245155, 66.010828071041033 ], [ -23.812194786619052, 66.011591913897917 ], [ -23.810683339712014, 66.012426204593666 ], [ -23.808814877156937, 66.013135796749481 ], [ -23.807007588026348, 66.013816315414104 ], [ -23.806047357670739, 66.014389102047971 ], [ -23.805438957398685, 66.015059580343774 ], [ -23.805248763282766, 66.015825688896072 ], [ -23.805568369853983, 66.016820363526449 ], [ -23.806036489787388, 66.017538926676991 ], [ -23.806897629649292, 66.018218155254331 ], [ -23.807978043550541, 66.018999185123562 ], [ -23.809425670406227, 66.019958877227538 ], [ -23.81068447902015, 66.020978718029014 ], [ -23.811698795877472, 66.021761778524166 ], [ -23.812493313331249, 66.022796004354362 ], [ -23.812951058606284, 66.023813536683079 ], [ -23.813235627357216, 66.024619234808583 ], [ -23.813958873667044, 66.025628526131328 ], [ -23.81471309069185, 66.026446797142967 ], [ -23.815452160854722, 66.027184082884943 ], [ -23.816926051989583, 66.027918086124998 ], [ -23.816390991210898, 66.033042907714801 ], [ -23.802753713852624, 66.0537429437246 ], [ -23.802557990877535, 66.053878373443439 ], [ -23.798386247957016, 66.05597802983489 ], [ -23.795447352464809, 66.057807649207419 ], [ -23.794242698749773, 66.059757556994597 ], [ -23.793944705874903, 66.061215780331523 ], [ -23.791540096278233, 66.062854915585788 ], [ -23.791530364471893, 66.062862801457982 ], [ -23.786252975463899, 66.066383361816506 ], [ -23.7672233581543, 66.070541381836094 ], [ -23.736006824787456, 66.067983340830693 ], [ -23.731532054955412, 66.067070441359832 ], [ -23.727945407777309, 66.066194367292198 ], [ -23.722702492882668, 66.064846961846484 ], [ -23.717580782233142, 66.063379814931551 ], [ -23.712654545013837, 66.062196357674679 ], [ -23.709026868255652, 66.061089305467519 ], [ -23.706204127335781, 66.060479385872839 ], [ -23.702494095240283, 66.06047583773902 ], [ -23.700103274340385, 66.060664104137231 ], [ -23.696752927513039, 66.060952235887683 ], [ -23.636112213134702, 66.049659729003906 ], [ -23.619529724121001, 66.047241210937599 ], [ -23.5304450988769, 66.029663085937599 ], [ -23.4115295410156, 65.997497558593906 ], [ -23.396251678466701, 65.989578247070298 ], [ -23.374446868896399, 65.986518859863295 ], [ -23.416389465331999, 66.026382446289105 ], [ -23.4255561828613, 66.032211303711094 ], [ -23.510055541992099, 66.057151794433693 ], [ -23.520389556884801, 66.057823181152301 ], [ -23.530568920422628, 66.058054805775839 ], [ -23.531143804435843, 66.058262710476598 ], [ -23.536090771728723, 66.059940047622419 ], [ -23.5398416532448, 66.061112439213503 ], [ -23.543093597807889, 66.062591715728402 ], [ -23.546211215948968, 66.063713810705636 ], [ -23.547575598458565, 66.063987971572686 ], [ -23.548718334914607, 66.064118596253337 ], [ -23.549417934364484, 66.064093420436549 ], [ -23.550337538537665, 66.064202444748233 ], [ -23.551151532045445, 66.064456507323513 ], [ -23.553791261623875, 66.065618984802839 ], [ -23.555723331043716, 66.066532647177894 ], [ -23.558014527855569, 66.067723244738971 ], [ -23.559856786905442, 66.068621103556836 ], [ -23.561753148605845, 66.069675634031753 ], [ -23.563042392251795, 66.070678592017785 ], [ -23.564543701987688, 66.07143245223665 ], [ -23.566986276283092, 66.072193348344101 ], [ -23.569817040276043, 66.072734629009759 ], [ -23.572295607041582, 66.073216833102776 ], [ -23.57569826907713, 66.074088128819483 ], [ -23.57700546921804, 66.074708827653765 ], [ -23.578045386006366, 66.075267999503438 ], [ -23.579317062065744, 66.076167279441037 ], [ -23.580157571874711, 66.077044560538752 ], [ -23.580372169700311, 66.077766815420617 ], [ -23.581078371380894, 66.078370499180366 ], [ -23.58201498230903, 66.078828609436925 ], [ -23.584288706636102, 66.07959424386911 ], [ -23.585845296872424, 66.080172832188964 ], [ -23.587262802841181, 66.080928977952567 ], [ -23.589385379183835, 66.081803083765834 ], [ -23.591562178794636, 66.082502095295467 ], [ -23.593531907886401, 66.082999024426528 ], [ -23.596279386966202, 66.083542333406342 ], [ -23.600277761740585, 66.083909820125015 ], [ -23.60370577249946, 66.084432869943342 ], [ -23.604255752701444, 66.084579497623707 ], [ -23.613224029541001, 66.091156005859503 ], [ -23.666112899780199, 66.112907409668097 ], [ -23.652155038164345, 66.120713417269101 ], [ -23.651377339373973, 66.120665824596742 ], [ -23.649775753843315, 66.120742116067049 ], [ -23.648010880870089, 66.121079451321876 ], [ -23.646300417619894, 66.121329752433468 ], [ -23.644421456232205, 66.121812760618056 ], [ -23.642382131664565, 66.122186679027322 ], [ -23.641220163641581, 66.122363636015564 ], [ -23.639543438080295, 66.122413600938316 ], [ -23.638120483016024, 66.122313669457498 ], [ -23.636521893676981, 66.122019712602139 ], [ -23.635202784436846, 66.121717412529165 ], [ -23.633943312947032, 66.121356405103384 ], [ -23.632264686819514, 66.121007858258494 ], [ -23.630971315371262, 66.120847087532354 ], [ -23.629119087196504, 66.12070291254642 ], [ -23.626169603885256, 66.120705180804251 ], [ -23.624303861909816, 66.120874452210117 ], [ -23.62094717147929, 66.121344121422595 ], [ -23.617738615863832, 66.121467767350595 ], [ -23.614864019099777, 66.121496054536379 ], [ -23.611645204901897, 66.121562956837721 ], [ -23.608082152790811, 66.121668435056705 ], [ -23.604669004964588, 66.121826318879855 ], [ -23.600727438520821, 66.122170526671141 ], [ -23.5969750006408, 66.122395191124582 ], [ -23.593227603176707, 66.122648070006292 ], [ -23.588905924149696, 66.122832405421619 ], [ -23.584978024999781, 66.122862715163023 ], [ -23.581484557161236, 66.122965528601071 ], [ -23.579253790941635, 66.123059593983541 ], [ -23.577183031559684, 66.123262779429879 ], [ -23.57528740896602, 66.12366002826937 ], [ -23.57319327514632, 66.124518463708611 ], [ -23.570903584495152, 66.125069524834345 ], [ -23.56879401190993, 66.125842964616211 ], [ -23.567793203284545, 66.126925393832721 ], [ -23.566248429937296, 66.128109141864158 ], [ -23.564129227557164, 66.129224320587113 ], [ -23.56224898202699, 66.130104778929521 ], [ -23.560418302294416, 66.130869915963856 ], [ -23.558322299943022, 66.131329715910795 ], [ -23.556086421117421, 66.131793576155829 ], [ -23.554898924680902, 66.132226754035585 ], [ -23.553436817466519, 66.132696401777707 ], [ -23.552324181518394, 66.13315583225959 ], [ -23.550018128515166, 66.133621647697481 ], [ -23.548485968314726, 66.134093298548862 ], [ -23.547293199325953, 66.134498102475419 ], [ -23.54633972246981, 66.134668231110666 ], [ -23.545156387121033, 66.134731217607566 ], [ -23.544237560869156, 66.134701093065303 ], [ -23.543398141853402, 66.134327124344694 ], [ -23.542698562510132, 66.133949074612815 ], [ -23.541874284066264, 66.133660044950346 ], [ -23.540436020337822, 66.133474274999571 ], [ -23.538798116228275, 66.133351242201556 ], [ -23.537274887870701, 66.133082541367997 ], [ -23.535457045353692, 66.132737025458866 ], [ -23.533858963887173, 66.132442019090647 ], [ -23.532415807886803, 66.132227867965682 ], [ -23.530767983306799, 66.132048109578406 ], [ -23.529584708692902, 66.132110978735327 ], [ -23.527967004190071, 66.132101088205459 ], [ -23.526489106917388, 66.132087110051032 ], [ -23.524516894459289, 66.132059012367449 ], [ -23.523513256115386, 66.131945864541152 ], [ -23.52226986164505, 66.131668898855182 ], [ -23.521370998996389, 66.131353472558857 ], [ -23.520746732991356, 66.131001602772542 ], [ -23.520192363990382, 66.130647711861556 ], [ -23.51978281519936, 66.130318079596961 ], [ -23.518894039089325, 66.130059263049887 ], [ -23.516377572449755, 66.129335364679434 ], [ -23.513012497982871, 66.128180658045721 ], [ -23.509692673905263, 66.127280721777282 ], [ -23.505564423736196, 66.126176425362743 ], [ -23.501586250531453, 66.125124614640043 ], [ -23.49737372903358, 66.124335611197722 ], [ -23.49304160005768, 66.123663786952491 ], [ -23.49011688760147, 66.123406627512168 ], [ -23.484637296612821, 66.1225969012539 ], [ -23.479917178593482, 66.121309812580222 ], [ -23.475512180671927, 66.119814323082338 ], [ -23.471845982959625, 66.118525173547596 ], [ -23.46717301545592, 66.116695672625369 ], [ -23.46272512068931, 66.114944978776663 ], [ -23.459001017643271, 66.113315728300364 ], [ -23.455771272001336, 66.111700703671204 ], [ -23.453195199845169, 66.110209224184743 ], [ -23.451037549225969, 66.109104157445245 ], [ -23.448616445217038, 66.107693554883156 ], [ -23.446171010445092, 66.106141335443496 ], [ -23.443347217566291, 66.104429129041776 ], [ -23.439726240049755, 66.102568885450552 ], [ -23.436663235008172, 66.1010910707313 ], [ -23.432473724304227, 66.099588378665729 ], [ -23.428552902141568, 66.098419433981874 ], [ -23.425688130308423, 66.097675677711621 ], [ -23.422159670516919, 66.097149942851161 ], [ -23.41921427439889, 66.096749849804425 ], [ -23.415871052797719, 66.096076432376833 ], [ -23.413096270838484, 66.09544374309634 ], [ -23.410126823122784, 66.094901884741759 ], [ -23.407491885849179, 66.094265138713837 ], [ -23.40378568548563, 66.093516386268774 ], [ -23.400975742038479, 66.093083683867633 ], [ -23.398096065053785, 66.092652904857545 ], [ -23.396242333998973, 66.092477651742882 ], [ -23.393942411722456, 66.091745849737677 ], [ -23.391548557775149, 66.090874386646973 ], [ -23.388757356965979, 66.089729538194973 ], [ -23.38555252191075, 66.088624767182992 ], [ -23.382247117851524, 66.087750417247918 ], [ -23.379026279879263, 66.086958996079005 ], [ -23.376766058843728, 66.086453502636161 ], [ -23.375054546683852, 66.085875619886082 ], [ -23.373631915754036, 66.085346521373566 ], [ -23.372786953658458, 66.084914983419196 ], [ -23.371532992289659, 66.084551854157866 ], [ -23.370466934766696, 66.084467994370058 ], [ -23.369016001830758, 66.084594125833618 ], [ -23.368068030952177, 66.084791490679649 ], [ -23.36761336575962, 66.085003445154143 ], [ -23.367242946149549, 66.085298405211361 ], [ -23.367091544067645, 66.085644129610117 ], [ -23.367358835526474, 66.085978088186295 ], [ -23.368572020102395, 66.086513133163223 ], [ -23.37159549995641, 66.087794052016321 ], [ -23.373937938914441, 66.08878107254624 ], [ -23.375563265069935, 66.089674395714951 ], [ -23.378642745223182, 66.090868265380294 ], [ -23.380956664373262, 66.091685249627673 ], [ -23.382733656287026, 66.09223277792114 ], [ -23.384729821283116, 66.092831008828909 ], [ -23.386420741488283, 66.093693946041967 ], [ -23.388689621382426, 66.094654380064469 ], [ -23.39048640837407, 66.095315095011443 ], [ -23.392294803725285, 66.095633983109508 ], [ -23.394134155720121, 66.095724328814782 ], [ -23.396106547156908, 66.096180825817214 ], [ -23.398465311354681, 66.097252417920217 ], [ -23.401637698529868, 66.098158691432104 ], [ -23.404641470643611, 66.098898927807255 ], [ -23.408143877058066, 66.099681912671542 ], [ -23.412414542978098, 66.100443033646016 ], [ -23.415339297072837, 66.101128411132393 ], [ -23.418264185477017, 66.101813734141075 ], [ -23.421382701361537, 66.102806537225248 ], [ -23.425547626903231, 66.104167933806806 ], [ -23.428122749110056, 66.105261435895827 ], [ -23.430772813125621, 66.106381227118888 ], [ -23.43341822452901, 66.107472652438844 ], [ -23.436104232667901, 66.108392143104027 ], [ -23.439049102208241, 66.10958877922927 ], [ -23.441684311338491, 66.111021870115678 ], [ -23.443715760490161, 66.112614438429034 ], [ -23.445154152982322, 66.114024719818687 ], [ -23.4461194252148, 66.115135472910069 ], [ -23.447988056788517, 66.116191950044708 ], [ -23.449653071748582, 66.116884286456639 ], [ -23.451243377191389, 66.117550274299404 ], [ -23.452414580501344, 66.118228240878466 ], [ -23.453100847342352, 66.119346929976061 ], [ -23.453214237860468, 66.119998218684088 ], [ -23.454149633795179, 66.121337450392019 ], [ -23.457069798123982, 66.12358745674652 ], [ -23.461287941074197, 66.126027921473963 ], [ -23.466969081759807, 66.128796302966478 ], [ -23.472163246356956, 66.130781654531688 ], [ -23.477363653508782, 66.132396707466157 ], [ -23.483453648504696, 66.133872185188167 ], [ -23.488381340981419, 66.134726367568746 ], [ -23.49217607054775, 66.135129271161674 ], [ -23.498642500463092, 66.135540357887791 ], [ -23.503211534293989, 66.135949105939304 ], [ -23.506687115504043, 66.136133218767867 ], [ -23.510562251256875, 66.136590277806476 ], [ -23.513548571265687, 66.136788403328694 ], [ -23.515810788341987, 66.136865159956542 ], [ -23.517348863808174, 66.136820579187457 ], [ -23.520300021574577, 66.136421945386346 ], [ -23.52187291298377, 66.136177085392148 ], [ -23.523361064607435, 66.136247731055747 ], [ -23.524499945575762, 66.136726944155768 ], [ -23.524904906813404, 66.137426687565224 ], [ -23.524945292488368, 66.138051631359289 ], [ -23.524631059089632, 66.138658418734636 ], [ -23.524806251655534, 66.139250986178411 ], [ -23.525385917544334, 66.139746432284255 ], [ -23.526519978180986, 66.140197322515434 ], [ -23.528553026114846, 66.140565152921383 ], [ -23.53122547946429, 66.140971302553055 ], [ -23.534622378503315, 66.14149862497149 ], [ -23.538369045239204, 66.142015692882325 ], [ -23.543224603218899, 66.142443439314789 ], [ -23.546711428240684, 66.142683282691351 ], [ -23.551821739018418, 66.142961033160447 ], [ -23.557116708080336, 66.14309091528726 ], [ -23.56453985764659, 66.143329077081745 ], [ -23.569060700888016, 66.143452755218931 ], [ -23.572132408624242, 66.143334223007926 ], [ -23.57622759724131, 66.143043264578623 ], [ -23.581811410984514, 66.142822295134209 ], [ -23.586131434184857, 66.142609843713018 ], [ -23.5911315323171, 66.142661868901413 ], [ -23.594733212862543, 66.142754958892155 ], [ -23.598401157862419, 66.143216028112604 ], [ -23.600781468475557, 66.14394272617939 ], [ -23.603644163409911, 66.145395163649397 ], [ -23.604992648697202, 66.146636136699797 ], [ -23.605151091835086, 66.147000621743658 ], [ -23.580553696098569, 66.160756844821989 ], [ -23.578461039733064, 66.16139225547272 ], [ -23.576409595101147, 66.162505528692364 ], [ -23.5761316661834, 66.162778100612925 ], [ -23.538059234619102, 66.178878784179801 ], [ -23.524984223054055, 66.182809527673655 ], [ -23.523829671109848, 66.182964810206329 ], [ -23.520687972783254, 66.183112733276957 ], [ -23.517756350869831, 66.183254521868292 ], [ -23.513753959396496, 66.18291494859821 ], [ -23.51050708799163, 66.182468074856459 ], [ -23.507848336038396, 66.182076619194817 ], [ -23.504793924603373, 66.181880876697463 ], [ -23.502168780557341, 66.181729473312842 ], [ -23.499059697787715, 66.181504544127492 ], [ -23.496583071177763, 66.18131874402026 ], [ -23.493716389784062, 66.18100879109501 ], [ -23.490419146323159, 66.180724711767255 ], [ -23.487916336378312, 66.180769621394987 ], [ -23.48487296740943, 66.18135786246738 ], [ -23.481603165076912, 66.182182610902714 ], [ -23.479246972229735, 66.182872808193963 ], [ -23.478230440827883, 66.183375674167465 ], [ -23.478084512379525, 66.18407010307412 ], [ -23.478859061065524, 66.18504941431064 ], [ -23.480100112396364, 66.186015337826149 ], [ -23.480515640212023, 66.186856065808499 ], [ -23.481121436561626, 66.187826674044231 ], [ -23.481715450300115, 66.188729957310656 ], [ -23.482611541268113, 66.189827571016494 ], [ -23.483014993800708, 66.191025108090869 ], [ -23.483134161090391, 66.1917030680723 ], [ -23.482598592774284, 66.19305280527638 ], [ -23.481808984019068, 66.19375684587628 ], [ -23.48098415325892, 66.194660623837464 ], [ -23.480424036578778, 66.195471639021861 ], [ -23.479070018839629, 66.19616346214535 ], [ -23.47766632280614, 66.196572783070991 ], [ -23.47582821266235, 66.196909366676408 ], [ -23.474384233331602, 66.197490152649493 ], [ -23.473094923842474, 66.198151674672445 ], [ -23.471221379454484, 66.198687943299049 ], [ -23.468928843885379, 66.198838715448474 ], [ -23.466561418747858, 66.198963207262878 ], [ -23.464204534283862, 66.198746679410945 ], [ -23.461862517927479, 66.198614853798787 ], [ -23.459425142600406, 66.198741235188052 ], [ -23.456807624614427, 66.199043057010755 ], [ -23.454784786630167, 66.199129141330005 ], [ -23.452572772170871, 66.198936696235279 ], [ -23.449511860760342, 66.198711619867197 ], [ -23.446121089714318, 66.198609438169797 ], [ -23.443998793572444, 66.198527876532538 ], [ -23.441684533157531, 66.198492882611362 ], [ -23.440784791376821, 66.198418309286993 ], [ -23.439025497871654, 66.198215049404027 ], [ -23.437185044320081, 66.198119951346243 ], [ -23.434707071532458, 66.197914569455108 ], [ -23.433398494048696, 66.197778672528202 ], [ -23.433117815137745, 66.197782847070783 ], [ -23.418559409858929, 66.196576202339614 ], [ -23.417573710576132, 66.196069442356915 ], [ -23.416048151894891, 66.19537447017737 ], [ -23.414426874523866, 66.194937697316476 ], [ -23.412176404459025, 66.194518674840765 ], [ -23.409690348190423, 66.194361769932144 ], [ -23.406979916503829, 66.194126000986401 ], [ -23.404175234686306, 66.193750890399244 ], [ -23.402668058216172, 66.193566281221095 ], [ -23.401134873495426, 66.193637876262414 ], [ -23.399956103323799, 66.193727866640032 ], [ -23.398887920563702, 66.193644395363549 ], [ -23.395304659681997, 66.193234286241179 ], [ -23.392799347286395, 66.192964112158563 ], [ -23.390523273437708, 66.192801013177757 ], [ -23.388495869141895, 66.192857991912462 ], [ -23.386678168028858, 66.192909054534553 ], [ -23.38497114768133, 66.192786661979838 ], [ -23.381882448771059, 66.192390753703592 ], [ -23.379567687129683, 66.1920014803123 ], [ -23.377790859581701, 66.191880969486064 ], [ -23.373622584930889, 66.191742263669212 ], [ -23.370946673973158, 66.191703619949493 ], [ -23.368490156616986, 66.191715580774186 ], [ -23.362837110527114, 66.191930364364055 ], [ -23.362622631006861, 66.191939992659485 ], [ -23.352500915527301, 66.191101074218906 ], [ -23.273056030273398, 66.174987792968807 ], [ -23.249604179759416, 66.168692505264872 ], [ -23.249603917335925, 66.168654582343009 ], [ -23.249479316668491, 66.167905943272757 ], [ -23.249315639470275, 66.167043936634443 ], [ -23.249235742644203, 66.166563833770553 ], [ -23.249010605751049, 66.165817940937089 ], [ -23.248769212279331, 66.164974397352466 ], [ -23.248117053026458, 66.163847767495767 ], [ -23.247307142788049, 66.16298700617125 ], [ -23.246273152498571, 66.161993374895346 ], [ -23.245133270388518, 66.160969925304173 ], [ -23.244376890574152, 66.160174038029211 ], [ -23.242697132026684, 66.159644187108768 ], [ -23.241094175543271, 66.159372593051657 ], [ -23.240046540488681, 66.159181817105818 ], [ -23.238897527180413, 66.158788240078806 ], [ -23.238308319954648, 66.158502774130341 ], [ -23.238175243283479, 66.158108987495709 ], [ -23.238464846353011, 66.157813347986234 ], [ -23.239239953927015, 66.157586735409609 ], [ -23.240165758794639, 66.15745194001596 ], [ -23.240774552844009, 66.157243545094019 ], [ -23.241302337617274, 66.156955119465593 ], [ -23.241623319538672, 66.156644923207267 ], [ -23.242099245866967, 66.156248281220002 ], [ -23.242858161102316, 66.155720611137951 ], [ -23.243316683470088, 66.155264728095986 ], [ -23.243454052311783, 66.154754195866516 ], [ -23.243254845089862, 66.154162896732259 ], [ -23.242307695896898, 66.153567427596045 ], [ -23.241212028688526, 66.153148012658207 ], [ -23.239494560022024, 66.152591755066325 ], [ -23.23773981171416, 66.152240641239217 ], [ -23.235679077256442, 66.151698345811567 ], [ -23.234351147194534, 66.151415326544978 ], [ -23.233049560886347, 66.151291126419537 ], [ -23.231734855449421, 66.151087495018743 ], [ -23.230734174327559, 66.150994994581993 ], [ -23.22962223824025, 66.150825728881003 ], [ -23.228216041968228, 66.150664443390568 ], [ -23.226620246622186, 66.150548159332672 ], [ -23.224821717268679, 66.150397468367217 ], [ -23.223239081044543, 66.150360570179927 ], [ -23.222133806736181, 66.150230965272712 ], [ -23.221048198057449, 66.150220461904908 ], [ -23.220001961775445, 66.150448203967727 ], [ -23.218661405193579, 66.150683900785367 ], [ -23.217726331695765, 66.150988385855939 ], [ -23.216810873043297, 66.151411984062634 ], [ -23.215535771953181, 66.152044722783486 ], [ -23.213966281638143, 66.152685403832066 ], [ -23.211709940005623, 66.153344616489775 ], [ -23.209381536709685, 66.153567008294814 ], [ -23.207020400374155, 66.153590833241807 ], [ -23.204515410181802, 66.153339312624411 ], [ -23.202337438431638, 66.153278364102576 ], [ -23.200401585934909, 66.152891786693715 ], [ -23.198897357353697, 66.15273287953805 ], [ -23.197870633181125, 66.15248133252571 ], [ -23.19696159810572, 66.152346259390669 ], [ -23.196444979600003, 66.152200631668777 ], [ -23.196408793578374, 66.152191094182314 ], [ -23.19603298734355, 66.152092060808684 ], [ -23.195104418607464, 66.15183786502655 ], [ -23.194280484224137, 66.151620723455565 ], [ -23.193064169312624, 66.151414128245278 ], [ -23.191448923971112, 66.151178364295603 ], [ -23.189729122342445, 66.150905511319195 ], [ -23.188002849193712, 66.150592932089779 ], [ -23.186041396283262, 66.150047347043653 ], [ -23.182948964639163, 66.149213016735288 ], [ -23.178013189037898, 66.147949441042897 ], [ -23.174554859926932, 66.147284287318314 ], [ -23.1729465518486, 66.1470880388636 ], [ -23.171658470149886, 66.147042742267885 ], [ -23.170037240744705, 66.14676704776025 ], [ -23.16797188467504, 66.146184150322085 ], [ -23.166384093675184, 66.145508704947162 ], [ -23.164606702711076, 66.144878182122639 ], [ -23.162600916289019, 66.144054342559869 ], [ -23.160307486780404, 66.143278028365401 ], [ -23.156863188318866, 66.142691906863135 ], [ -23.153988088373648, 66.141970896573326 ], [ -23.150511848515496, 66.141186081868852 ], [ -23.147592018198644, 66.140186989442455 ], [ -23.145156259139519, 66.139135087037587 ], [ -23.14349227316254, 66.137982886116603 ], [ -23.141267437885094, 66.136406861859243 ], [ -23.139034813440723, 66.135389370256462 ], [ -23.13652277024574, 66.133860806233074 ], [ -23.134245611235865, 66.132565258683982 ], [ -23.13230948023741, 66.130941599518707 ], [ -23.131013055854297, 66.129620013428266 ], [ -23.129265128647592, 66.128549665355678 ], [ -23.127097746422976, 66.127929109595655 ], [ -23.12501110184321, 66.126994637371283 ], [ -23.123157622235112, 66.125955079743605 ], [ -23.121622444689031, 66.124928424885738 ], [ -23.119640377669267, 66.123742815197431 ], [ -23.11879078619808, 66.122719357717287 ], [ -23.118583215074832, 66.122084478655751 ], [ -23.11825382240902, 66.121263323953542 ], [ -23.117940859086747, 66.120427842157326 ], [ -23.11757384963191, 66.119256284592424 ], [ -23.117371674178706, 66.118369654552666 ], [ -23.117303427802049, 66.117575912383984 ], [ -23.117745035024608, 66.116624052612238 ], [ -23.118312768877573, 66.115717064970411 ], [ -23.119011770647834, 66.114517315561571 ], [ -23.119543377149071, 66.113755923525815 ], [ -23.119838110956483, 66.113000795466434 ], [ -23.119926865232028, 66.112443973947563 ], [ -23.1194904182112, 66.111949257201758 ], [ -23.118824889811034, 66.111508827143723 ], [ -23.117891615447739, 66.110882608964204 ], [ -23.117170765156981, 66.110467736589499 ], [ -23.115972403485447, 66.110041375375985 ], [ -23.114955582916547, 66.109634317634544 ], [ -23.112794547918455, 66.109136944452601 ], [ -23.110826631931804, 66.108730872962212 ], [ -23.109592372087999, 66.108450061835768 ], [ -23.10824359293504, 66.108196372666882 ], [ -23.107483047717057, 66.107903045725209 ], [ -23.106834046831594, 66.106486381340289 ], [ -23.106165130916882, 66.104890126580884 ], [ -23.105473360892088, 66.104689528371054 ], [ -23.10455976732327, 66.104227310511035 ], [ -23.105659296712869, 66.103979472303465 ], [ -23.106440762608766, 66.100627601169862 ], [ -23.108797715163668, 66.096261494365649 ], [ -23.111257426224469, 66.092913877501942 ], [ -23.112998864163306, 66.091068463393825 ], [ -23.113444669000536, 66.090599818016059 ], [ -23.117254582502287, 66.08659371228832 ], [ -23.117682556088919, 66.08614361966653 ], [ -23.118080605024428, 66.085724969230142 ], [ -23.118375134142756, 66.085415202202427 ], [ -23.119083734328143, 66.084669893499793 ], [ -23.120636474898113, 66.083036539058611 ], [ -23.123399146160715, 66.078610684531753 ], [ -23.120133779216811, 66.076557381232675 ], [ -23.111189030259549, 66.074192297187281 ], [ -23.1130342853249, 66.071882084088188 ], [ -23.114521350181764, 66.070699869523125 ], [ -23.113046465643425, 66.068599063624561 ], [ -23.114403631010966, 66.068101134684809 ], [ -23.117344650634315, 66.067026291538923 ], [ -23.120514872483078, 66.066261427201269 ], [ -23.126117140604645, 66.06424043270323 ], [ -23.127240414606653, 66.063408150405721 ], [ -23.130299049909631, 66.063813235907958 ], [ -23.132521044324928, 66.06497001344141 ], [ -23.130228370016322, 66.067462632150082 ], [ -23.128937208999222, 66.069855655038594 ], [ -23.126293338182709, 66.071287576626176 ], [ -23.12371630976768, 66.071647753587399 ], [ -23.123231728425083, 66.072730532537392 ], [ -23.124848820672764, 66.074219584563963 ], [ -23.128927060608909, 66.073138674734622 ], [ -23.141369916672591, 66.070084230270055 ], [ -23.146604580988132, 66.068864636499669 ], [ -23.148879283665174, 66.068335108953676 ], [ -23.167720150491121, 66.064565107912955 ], [ -23.170265536309071, 66.063797594090531 ], [ -23.17205766977148, 66.063257167480984 ], [ -23.172309439365812, 66.062229049878411 ], [ -23.170800592016899, 66.061600113690574 ], [ -23.165951990261856, 66.059578749943995 ], [ -23.165304176708801, 66.059201628383519 ], [ -23.164638303490189, 66.058813979940624 ], [ -23.160002592252479, 66.056114809611998 ], [ -23.160406080834928, 66.054912440543362 ], [ -23.155208193972769, 66.05385999475682 ], [ -23.153234705308808, 66.0534993648251 ], [ -23.15338288507791, 66.052936096498911 ], [ -23.155770270572287, 66.052896568180657 ], [ -23.160686406310312, 66.053689058437911 ], [ -23.162623273755418, 66.050135417568313 ], [ -23.163611040034137, 66.046266726627081 ], [ -23.162014458931182, 66.045549767271964 ], [ -23.159158058610711, 66.045207276763051 ], [ -23.156855551442316, 66.045521914572234 ], [ -23.155916290182994, 66.047518476087618 ], [ -23.154149499611048, 66.049170704028825 ], [ -23.153717612862241, 66.050568355798305 ], [ -23.150677319532686, 66.051379143657485 ], [ -23.148251418867801, 66.052659813110878 ], [ -23.147354152238737, 66.054142803863598 ], [ -23.148374170390639, 66.054528969286991 ], [ -23.150948321673891, 66.054533167347856 ], [ -23.152467849051561, 66.055416622777571 ], [ -23.149771951756094, 66.056509980833212 ], [ -23.144262949956623, 66.057605388631359 ], [ -23.139119886646448, 66.058374725633215 ], [ -23.126830695331257, 66.061126140731702 ], [ -23.119432437536727, 66.062781772477308 ], [ -23.108495405836134, 66.06684935826847 ], [ -23.092512299986328, 66.074547663736311 ], [ -23.089721890494523, 66.076722865572322 ], [ -23.083893384496964, 66.079773947961527 ], [ -23.074378487607561, 66.084760773641989 ], [ -23.06868755341069, 66.08826097497159 ], [ -23.060178698746185, 66.093992286656743 ], [ -23.055834947766357, 66.096302785930476 ], [ -23.048564021888723, 66.099469478278024 ], [ -23.0451045743308, 66.100928688198778 ], [ -23.042538629769687, 66.101584455666583 ], [ -23.040463937181137, 66.10162239951066 ], [ -23.038916612218323, 66.101519257127038 ], [ -23.039201558148772, 66.10080870761368 ], [ -23.036857289553126, 66.10037577924146 ], [ -23.034659274116656, 66.100110573821567 ], [ -23.032492517905901, 66.099683422772358 ], [ -23.030335461503515, 66.098956819127778 ], [ -23.028690709381131, 66.098239939998848 ], [ -23.027392301331307, 66.097560115197922 ], [ -23.025727232346412, 66.097073873045886 ], [ -23.023879452136345, 66.096868499078283 ], [ -23.022452412598632, 66.096813334747793 ], [ -23.021244217764686, 66.09670647210659 ], [ -23.020685286849243, 66.096398722078135 ], [ -23.020320016682408, 66.095878841388128 ], [ -23.020282960752347, 66.095281439554881 ], [ -23.01985760139506, 66.094740099392823 ], [ -23.018987466070076, 66.094256267799864 ], [ -23.017503055136512, 66.093834322852075 ], [ -23.016206182414972, 66.093522597778644 ], [ -23.013912940862809, 66.093006421146541 ], [ -23.011697822821517, 66.092626291205576 ], [ -23.010743647949106, 66.092328690378295 ], [ -23.009958962270417, 66.092026725601741 ], [ -23.009269331536132, 66.091607236037959 ], [ -23.008441641521358, 66.091030206805371 ], [ -23.007380854913215, 66.090413155915058 ], [ -23.005348171205704, 66.089383862502572 ], [ -23.003641084733051, 66.088622323868506 ], [ -23.001979838659278, 66.087790557615293 ], [ -23.000050580133355, 66.087057709919904 ], [ -22.998922949376585, 66.086373287436146 ], [ -22.998318008226228, 66.085767476767089 ], [ -22.998182816329951, 66.085264654242096 ], [ -22.997249786676321, 66.084736313107896 ], [ -22.996158058674204, 66.084281075935351 ], [ -22.994896247268628, 66.083461994682324 ], [ -22.993040525919824, 66.08210583566003 ], [ -22.991205741446546, 66.080518980163717 ], [ -22.990176664158586, 66.079371712303413 ], [ -22.98979732232409, 66.078391874684954 ], [ -22.989025726632029, 66.07707689540247 ], [ -22.988102069917112, 66.075512670625827 ], [ -22.98776446647809, 66.074071494946253 ], [ -22.987180296576184, 66.072866773595322 ], [ -22.987016892171315, 66.072180566961578 ], [ -22.986941431191351, 66.07133101339403 ], [ -22.987003836129507, 66.070639016043742 ], [ -22.986871939200707, 66.069790909221837 ], [ -22.986247535502038, 66.067597646660516 ], [ -22.98595648591338, 66.066454446647327 ], [ -22.985926260396166, 66.065166476878872 ], [ -22.985853839374755, 66.063971639789415 ], [ -22.985604448382805, 66.062367104528334 ], [ -22.985453703184948, 66.060667978455498 ], [ -22.985356385185021, 66.059312694658374 ], [ -22.985897538875591, 66.058056088479418 ], [ -22.986212407096417, 66.056437076526791 ], [ -22.986417937259318, 66.054843877610168 ], [ -22.98615791430954, 66.053170569563278 ], [ -22.985742945060778, 66.051593287721019 ] ] ] ] } },
{ "type": "Feature", "properties": { "id": "IS-AF" }, "geometry": { "type": "MultiPolygon", "coordinates": [ [ [ [ -14.008744640293111, 65.266081485520758 ], [ -13.859109801582687, 65.293220704762561 ], [ -13.726929434895025, 65.287503592431008 ], [ -13.691600953173458, 65.299164981209714 ], [ -13.582180726506321, 65.272543953262883 ], [ -13.574790492982794, 65.265647517902252 ], [ -13.633841347678221, 65.221754771326957 ], [ -13.637027588296911, 65.220368083508447 ], [ -13.833122104969215, 65.203887939453196 ], [ -13.8630561828613, 65.203887939453196 ], [ -14.030279159545801, 65.193466186523395 ], [ -14.013195991516101, 65.185958862304801 ], [ -13.978889465331999, 65.187210083007898 ], [ -13.9475002288818, 65.192489624023395 ], [ -13.9209098815918, 65.195312499999901 ], [ -13.872615362785771, 65.197452521285015 ], [ -13.788749041400942, 65.186774615881902 ], [ -13.628297618608222, 65.190541848384768 ], [ -13.624392671917533, 65.189857502898249 ], [ -13.651779158839471, 65.14948518288557 ], [ -13.734086086558145, 65.14040444415933 ], [ -13.649139186767705, 65.130819124211058 ], [ -13.697913077405309, 65.107578915130873 ], [ -13.624213930661554, 65.113411674722457 ], [ -13.636870010421042, 65.086570448189406 ], [ -13.582988662129136, 65.121536637924478 ], [ -13.53199987662088, 65.114277253175601 ], [ -13.53936779077428, 65.095843798780848 ], [ -13.503834141550678, 65.079619730493803 ], [ -13.499954763752713, 65.070368559778018 ], [ -13.544601815499979, 65.041847312583926 ], [ -13.610694566021765, 65.028020318993129 ], [ -13.602991243187544, 64.997185647875412 ], [ -13.604167938232401, 64.996658325195398 ], [ -13.616111755371101, 64.992492675781307 ], [ -13.632865423219231, 64.988413467798239 ], [ -13.659027621842338, 64.983843990789097 ], [ -13.698322512799546, 64.98435368454335 ], [ -13.7715559005737, 64.992324829101705 ], [ -13.783555984496999, 64.996902465820398 ], [ -13.820417404174799, 65.016242980957003 ], [ -13.853055953979499, 65.034439086914105 ], [ -13.872501373291, 65.039993286132898 ], [ -13.8866672515869, 65.043045043945398 ], [ -13.9880561828613, 65.063888549804801 ], [ -13.988336130118654, 65.063205120046774 ], [ -14.034497180730463, 65.074608775267961 ], [ -13.995259717801408, 65.046302701000201 ], [ -13.997608467957164, 65.040568743233308 ], [ -14.227485315938944, 65.028101124910549 ], [ -14.178368087063134, 65.014828221140476 ], [ -13.982696335317272, 65.009874005950422 ], [ -13.870555877685501, 64.973327636718807 ], [ -13.807606284452907, 64.956949097492512 ], [ -13.77731945292093, 64.943339423432533 ], [ -13.748899102620245, 64.94284272034578 ], [ -13.7443342208862, 64.942047119140597 ], [ -13.706111907959, 64.931243896484403 ], [ -13.7004175186157, 64.920402526855497 ], [ -13.709584236145, 64.914993286132798 ], [ -13.7611122131347, 64.911651611328196 ], [ -13.800751856016811, 64.911032756724993 ], [ -13.832709464468689, 64.912343382393729 ], [ -13.9413890838622, 64.921096801757798 ], [ -14.051251411437899, 64.932212829589901 ], [ -14.047437306839676, 64.927788787078455 ], [ -14.403969340387201, 64.965794228150102 ], [ -14.478331905106355, 65.007001030709858 ], [ -14.424647297843951, 65.073081284905996 ], [ -14.449084003304744, 65.130076953231637 ], [ -14.339472467157547, 65.263331568655161 ], [ -14.221296548759158, 65.251119587214021 ], [ -14.123372911254588, 65.265647950883277 ], [ -14.112225832035721, 65.317406646659151 ], [ -13.965046113402247, 65.308274622250124 ], [ -13.903549641597726, 65.327183908733531 ], [ -13.718576844347393, 65.333283495150198 ], [ -13.719011919682204, 65.332878584780431 ], [ -13.76914921064059, 65.306039566042884 ], [ -13.862871723076374, 65.307862584083367 ], [ -14.008744640293111, 65.266081485520758 ] ] ] ] } },
{ "type": "Feature", "properties": { "id": "IS-SV" }, "geometry": { "type": "MultiPolygon", "coordinates": [ [ [ [ -21.03971067221838, 64.104890494262207 ], [ -20.979687060805496, 64.073434191073602 ], [ -20.973786072855912, 63.955555674823984 ], [ -21.012201312846958, 63.940964464382368 ], [ -21.063037444999143, 63.938096636762573 ], [ -21.052362442016499, 63.939960479736399 ], [ -21.169723510742099, 63.954162597656399 ], [ -21.1908359527587, 63.9548568725587 ], [ -21.203334808349599, 63.953330993652401 ], [ -21.2609748840331, 63.942497253417997 ], [ -21.266098621695026, 63.939310829608061 ], [ -21.654562526842625, 63.954245420623479 ], [ -21.823735251097631, 64.15454658333222 ], [ -21.821945190429599, 64.154434204101705 ], [ -21.779096310839197, 64.159773713944844 ], [ -21.778904318413439, 64.159600606335275 ], [ -21.778049599794365, 64.159904147318599 ], [ -21.750556945800799, 64.163330078125099 ], [ -21.702085494995099, 64.182769775390597 ], [ -21.741526580978636, 64.201326267202617 ], [ -21.717675786160541, 64.204666529560001 ], [ -21.74833666618887, 64.204530319203002 ], [ -21.807781219482401, 64.232498168945298 ], [ -21.8233337402344, 64.234436035156307 ], [ -21.841392517089801, 64.234710693359403 ], [ -21.8759746551513, 64.232902526855497 ], [ -21.8358345031738, 64.283874511718807 ], [ -21.802438145028763, 64.308440725213501 ], [ -21.737324352566336, 64.345994155151075 ], [ -21.642440905328662, 64.337521521126092 ], [ -21.681898617731107, 64.358812258105985 ], [ -21.58080546634833, 64.37899644087183 ], [ -21.569168090820298, 64.366516113281406 ], [ -21.549446105956999, 64.364440917968906 ], [ -21.545403023578462, 64.364273835819461 ], [ -21.544182699373962, 64.363685390261097 ], [ -21.421105571662704, 64.359526609144524 ], [ -21.396108513352658, 64.37730094266665 ], [ -21.37819482603005, 64.381431995557222 ], [ -21.27354524214249, 64.382402727719409 ], [ -21.221247514578899, 64.400841558606075 ], [ -21.131288984803739, 64.381877178458438 ], [ -21.013069827514339, 64.38051541935755 ], [ -20.992955256324453, 64.313351645408758 ], [ -21.081576101005084, 64.293878036183742 ], [ -21.133183063974915, 64.209429492024114 ], [ -21.117858030877283, 64.180655632679645 ], [ -21.019618470932734, 64.132411984890439 ], [ -21.03971067221838, 64.104890494262207 ] ] ] ] } },
{ "type": "Feature", "properties": { "id": "IS-TN" }, "geometry": { "type": "MultiPolygon", "coordinates": [ [ [ [ -18.505699077846522, 65.856726505648894 ], [ -18.540905807231287, 65.720775722951529 ], [ -18.619436209897561, 65.720272287764161 ], [ -18.647349724871553, 65.700074014193305 ], [ -18.78527950564504, 65.695179763306001 ], [ -18.823716766446079, 65.737963981979632 ], [ -18.797353163411071, 65.766190160338354 ], [ -18.836667027868657, 65.792993950425455 ], [ -18.983841576128281, 65.835183547798451 ], [ -18.97563993533122, 65.882399437189264 ], [ -19.196820943652028, 65.927243093100188 ], [ -19.179978633854294, 65.960725380579404 ], [ -19.231945468128878, 65.996113108722952 ], [ -19.214598144253277, 66.039611110770011 ], [ -19.291348158918694, 66.078129758810078 ], [ -19.257544742250975, 66.079359860012516 ], [ -19.206736334640262, 66.085394640355275 ], [ -19.148966368393509, 66.070988634476194 ], [ -19.145267605546987, 66.083378049751502 ], [ -19.0797233581543, 66.077499389648395 ], [ -19.086578448775239, 66.106792959181234 ], [ -19.058493576834927, 66.159155857481991 ], [ -18.952461670226057, 66.189698180059594 ], [ -18.902150409278534, 66.178797928859609 ], [ -18.908381206978163, 66.14186629129334 ], [ -18.864636623290938, 66.161201294113084 ], [ -18.856168251361982, 66.199567193937369 ], [ -18.757660050372685, 66.181794079346574 ], [ -18.788753080554297, 66.132591072081198 ], [ -18.712085058731741, 66.162073998098194 ], [ -18.665735058103738, 66.155890824663743 ], [ -18.653057098388601, 66.149429321289105 ], [ -18.630001068115199, 66.135543823242202 ], [ -18.62118773935206, 66.129804811320284 ], [ -18.604605084156908, 66.117229637671997 ], [ -18.657377140612617, 66.078346137672526 ], [ -18.573090964920858, 66.09698570410211 ], [ -18.567915695657273, 66.095115433210623 ], [ -18.551946640014599, 66.084716796874901 ], [ -18.5333366394043, 66.063888549804801 ], [ -18.519584655761701, 66.019989013671903 ], [ -18.532222747802699, 66.003326416015597 ], [ -18.539237976074201, 65.975891113281307 ], [ -18.530002593994102, 65.967773437500099 ], [ -18.452381491748788, 65.956430428749258 ], [ -18.432099605256823, 65.913252826981036 ], [ -18.446073398369695, 65.860317495260887 ], [ -18.505699077846522, 65.856726505648894 ] ] ] ] } }
]
}
