[
  {
    "id": "ES-CT-RF"
  },
  {
    "id": "ES-CT-PA"
  },
  {
    "id": "ES-CT-PP"
  },
  {
    "id": "ES-CT-VN"
  },
  {
    "id": "ES-CT-TF"
  },
  {
    "id": "ES-CT-PR"
  },
  {
    "id": "ES-CT-L-04"
  }
]