{
  "type": "FeatureCollection",
  "name": "ES-CT-L_micro-regions",
  "crs": {
    "type": "name",
    "properties": { "name": "urn:ogc:def:crs:OGC:1.3:CRS84" }
  },
  "features": [
    {
      "type": "Feature",
      "properties": {
        "id": "ES-CT-L",
        "aws": [
          {
            "name": "CLA",
            "url": {
              "oc": "https://lauegi.report/oc",
              "ca": "https://lauegi.report/ca",
              "es": "https://lauegi.report/es",
              "en": "https://lauegi.report/en",
              "it": "https://lauegi.report/it",
              "fr": "https://lauegi.report/fr",
              "de": "https://lauegi.report/de",
              "api": "https://static.lauegi.report/albina_files/latest/ES-CT-L_{lang}_CAAMLv6.json",
              "api:date": "https://static.lauegi.report/albina_files/{date}/{date}_ES-CT-L_{lang}_CAAMLv6.json",
              "mail": "mailto:lauegi@aran.org",
              "facebook": "https://www.facebook.com/centrelauegiaran",
              "twitter": "https://twitter.com/lauegi",
              "instagram": "https://www.instagram.com/centredelauegi/",
              "youtube": "https://www.youtube.com/user/centrelauegi"
            }
          }
        ]
      },
      "geometry": {
        "type": "MultiPolygon",
        "coordinates": [
          [
            [
              [0.659059115128536, 42.83753585550992],
              [0.660045792194725, 42.839424734792807],
              [0.661793117484576, 42.840784102430568],
              [0.664163131007403, 42.842467600853524],
              [0.666665357277734, 42.84345297914075],
              [0.668962061967267, 42.844278392784915],
              [0.672838917125306, 42.845291616201244],
              [0.675846718629153, 42.846909972805662],
              [0.678725633314077, 42.849148540414092],
              [0.678620724833044, 42.851949476075994],
              [0.678010396545765, 42.854117258180288],
              [0.677761004045962, 42.855124416180566],
              [0.679887581738145, 42.854856081112423],
              [0.681899665630175, 42.854818976649277],
              [0.683900116686098, 42.855093052749389],
              [0.685789028440543, 42.855520564977766],
              [0.687072518786135, 42.855157188025039],
              [0.688650017573902, 42.855422635529592],
              [0.690453526036006, 42.855303306557794],
              [0.692668430211072, 42.855503692531897],
              [0.693920033285964, 42.855996087546401],
              [0.695288981805906, 42.856179379721915],
              [0.697175121894194, 42.856684511283859],
              [0.698852680863176, 42.85710755666927],
              [0.701356075644414, 42.858092201866533],
              [0.702499164692351, 42.858660187369381],
              [0.704682533323191, 42.859716200611331],
              [0.705305544284886, 42.860040142116922],
              [0.705925681004098, 42.860441885534968],
              [0.70708037601554, 42.860698608002608],
              [0.70864372789592, 42.861352813678849],
              [0.709821460650339, 42.86098706642921],
              [0.710996305401022, 42.860699112132657],
              [0.712065381758682, 42.860409031872614],
              [0.713768993569196, 42.860131615590134],
              [0.715286897735642, 42.859149701082025],
              [0.716161624291408, 42.858388525474624],
              [0.718673959860846, 42.859139385564809],
              [0.720248853557264, 42.859482211104002],
              [0.721852372953873, 42.859046954709754],
              [0.723352973684453, 42.858531765975918],
              [0.725399460615844, 42.857560226724921],
              [0.726782826758269, 42.85735411535326],
              [0.727857482670981, 42.856908271308036],
              [0.729580891446307, 42.856085969823503],
              [0.731207050101446, 42.855028125478604],
              [0.732258857401501, 42.855204691614425],
              [0.734185126311749, 42.85461992762113],
              [0.734865125831072, 42.853387573992975],
              [0.735016369906478, 42.852144756021083],
              [0.735693481284886, 42.850990202844422],
              [0.736076076718125, 42.849206916106667],
              [0.736204550350784, 42.848586551004203],
              [0.738124897702279, 42.848157328277225],
              [0.741314079885619, 42.847753113170114],
              [0.744077440696442, 42.847418282147444],
              [0.74791793864065, 42.846559534893785],
              [0.751229656636663, 42.845690272808163],
              [0.754112710237974, 42.844968232647389],
              [0.757632915083041, 42.844180737108559],
              [0.759989978768564, 42.843370381388262],
              [0.761601250621725, 42.84270112785444],
              [0.762389108804287, 42.841392852090209],
              [0.765408422075429, 42.839816696056793],
              [0.767876555021603, 42.838852621549613],
              [0.769682284306135, 42.838654225189053],
              [0.772022219461612, 42.83831047108778],
              [0.77395319870481, 42.837569399805631],
              [0.77567268766361, 42.836824186579136],
              [0.777809445274567, 42.836242774794691],
              [0.779718008563497, 42.836124078997457],
              [0.781295482715138, 42.836388253120681],
              [0.782981475575577, 42.836576643527117],
              [0.784689715697496, 42.836142530603723],
              [0.785972269585217, 42.835778023814939],
              [0.787763984910841, 42.835968388282396],
              [0.789433348972043, 42.836623544176753],
              [0.790693711687777, 42.836881465141516],
              [0.792894526770467, 42.837468961978381],
              [0.793704338099154, 42.838496799273855],
              [0.794516943289836, 42.839446820974473],
              [0.796403464597182, 42.839950331586742],
              [0.798509765901461, 42.840224446843536],
              [0.80019040484673, 42.840568208443301],
              [0.801244952805747, 42.8406663311006],
              [0.804238485937957, 42.839789422711618],
              [0.806060667416227, 42.839123584564696],
              [0.80827547019593, 42.839321735553469],
              [0.810398296711548, 42.839128765844599],
              [0.811797484675548, 42.838454744733177],
              [0.813096403624458, 42.837623063376732],
              [0.815118916675205, 42.8372723617425],
              [0.816303825705686, 42.836672061560165],
              [0.817071292602438, 42.835908062142622],
              [0.817630032449821, 42.835062214212542],
              [0.818278055452259, 42.834685248226599],
              [0.82028131050965, 42.834879140574067],
              [0.821921803253997, 42.83335309058748],
              [0.822588903713593, 42.832431415637664],
              [0.823670663757576, 42.83175121349516],
              [0.825467864547282, 42.831785368966621],
              [0.82718388347852, 42.831117180743611],
              [0.829108574342263, 42.830530788018997],
              [0.83061309125157, 42.829858536494093],
              [0.832543150365436, 42.829116459422011],
              [0.834261739062774, 42.828370348668955],
              [0.835543866281674, 42.828005279427408],
              [0.836703985893069, 42.828105073643542],
              [0.837752972535308, 42.828358484816604],
              [0.839533831180882, 42.828859293698628],
              [0.841753823030312, 42.828901171640616],
              [0.843111872051481, 42.829393952409959],
              [0.84428555399256, 42.829104605576951],
              [0.845676058539161, 42.828663599467191],
              [0.845887486317952, 42.828667578338582],
              [0.84747589619079, 42.828619594220555],
              [0.848874463676046, 42.82794510859155],
              [0.852937345492268, 42.826697697145285],
              [0.85452032105442, 42.826805241054636],
              [0.855894569204598, 42.826830989628853],
              [0.85729569577469, 42.826078583977107],
              [0.858065220856697, 42.825236480408527],
              [0.859181383111836, 42.823544349249019],
              [0.860500840053839, 42.822089598637511],
              [0.862237677912897, 42.820798355676359],
              [0.86514517060741, 42.819295330595217],
              [0.866337295054928, 42.818461049756941],
              [0.867740780700103, 42.817630693261762],
              [0.869252596076601, 42.816724471347555],
              [0.871295506610006, 42.815750242891454],
              [0.872872917505446, 42.81601316330265],
              [0.874683052153329, 42.815657469268778],
              [0.876842193346435, 42.814373849132217],
              [0.879249183393022, 42.815119253799125],
              [0.880306119384983, 42.815138833375272],
              [0.881172922292354, 42.814531968524491],
              [0.882253746939121, 42.813851192845263],
              [0.883429623786169, 42.813483622184094],
              [0.885340018343173, 42.813285341518366],
              [0.886323036886681, 42.812369126528239],
              [0.887089352648, 42.811604631441931],
              [0.888370847371302, 42.811238959220589],
              [0.889874283146858, 42.810565906637713],
              [0.891274644910536, 42.809813070591773],
              [0.891731744725321, 42.808809252775234],
              [0.89228658489628, 42.808040826382268],
              [0.893361894750268, 42.807515571408217],
              [0.895065994316718, 42.807157600800096],
              [0.896667031096967, 42.806719846232774],
              [0.897948371803673, 42.806354062815046],
              [0.898608791814971, 42.805587543934308],
              [0.899166151120337, 42.804741264890183],
              [0.900140934598728, 42.804058370973792],
              [0.901113066040322, 42.803453284566359],
              [0.90239694343133, 42.80300963254799],
              [0.903155061727394, 42.802478470918722],
              [0.904335858501281, 42.801955043810565],
              [0.905199619540459, 42.801425802572453],
              [0.906277332306423, 42.80082260383049],
              [0.906617957126408, 42.800128051826128],
              [0.90685290530411, 42.799431566245019],
              [0.90676822206109, 42.798807099945684],
              [0.906905365188664, 42.797875231256455],
              [0.907555094481281, 42.797419922202479],
              [0.90852704983928, 42.796814768089682],
              [0.909699836311588, 42.796524732318289],
              [0.911493508978045, 42.796635338742909],
              [0.913503747459004, 42.796594135393953],
              [0.915199603744396, 42.796469306261315],
              [0.916161027455997, 42.796175354132608],
              [0.916831554835128, 42.795097451968559],
              [0.917401616912134, 42.793861988065132],
              [0.91983961882291, 42.793672725211344],
              [0.920391368771708, 42.792981967068371],
              [0.920945711077633, 42.792213388341672],
              [0.921925267709994, 42.791374662243228],
              [0.92321655838063, 42.79069731361048],
              [0.92450782119528, 42.79001994968651],
              [0.926113416793508, 42.789426131358297],
              [0.9279173129183, 42.789225212406983],
              [0.929612953495791, 42.789100173844488],
              [0.930891160312762, 42.788811833079826],
              [0.932988680291557, 42.789316930114282],
              [0.933686838138207, 42.790575378523982],
              [0.934498445009171, 42.791602275508353],
              [0.935621883786135, 42.792790522576311],
              [0.936021248715908, 42.793498511101056],
              [0.937147334779089, 42.794608925905457],
              [0.937850800981225, 42.795711714293084],
              [0.938252792600906, 42.796341877300868],
              [0.940863482159457, 42.797323265063618],
              [0.942422716490564, 42.798129961877663],
              [0.944296427868471, 42.799020152405411],
              [0.945239741666951, 42.799270689864152],
              [0.945634106799324, 42.800134284755238],
              [0.946324914627535, 42.801626118151134],
              [0.94886112987355, 42.801671608443016],
              [0.95149532454283, 42.801952391341032],
              [0.953485222933613, 42.802533052029936],
              [0.955787071092114, 42.803274981358328],
              [0.957568254252011, 42.803773977436705],
              [0.958798035365385, 42.80496389529646],
              [0.960138661413675, 42.806000046148782],
              [0.962383566843058, 42.805261394461247],
              [0.963780415149696, 42.804585475387313],
              [0.965705636745129, 42.803918933731033],
              [0.966043074603891, 42.803302012468983],
              [0.9667204781194, 42.801990346628109],
              [0.967500980074302, 42.800758372705879],
              [0.968598470598785, 42.799532020878878],
              [0.96968573956488, 42.798616936953024],
              [0.971399372617175, 42.797946543462572],
              [0.973633700763377, 42.797518941150521],
              [0.97492712341379, 42.796763187314362],
              [0.976547661263485, 42.795701742956105],
              [0.977846078993542, 42.794790313668599],
              [0.978510471826756, 42.793867670758281],
              [0.978540867175216, 42.792933825864431],
              [0.978156215840552, 42.79175905282699],
              [0.977763977272195, 42.790817739805377],
              [0.979286246990715, 42.78952092264727],
              [0.981120359615189, 42.788385317231821],
              [0.982627337197836, 42.787555379540265],
              [0.983384601702938, 42.787023675064951],
              [0.984031149802894, 42.786645744889562],
              [0.984873848148023, 42.786738458113796],
              [0.986986910508102, 42.786775662021618],
              [0.98846605654188, 42.786801681572371],
              [0.990166582781828, 42.786520110658095],
              [0.99195262280163, 42.786862937824793],
              [0.99374371023601, 42.787050095086634],
              [0.995107167999311, 42.787385460878319],
              [0.996888243858546, 42.787883854622557],
              [0.998878155528296, 42.78846373940695],
              [1.000334805118336, 42.789189999582646],
              [1.001796496185532, 42.789760598720882],
              [1.003575195550206, 42.790336712221496],
              [1.00557024939671, 42.790760839897352],
              [1.006953834262673, 42.790473493287607],
              [1.008138564261245, 42.789793341005712],
              [1.009539573353712, 42.78896120921349],
              [1.010407274762881, 42.788275516301013],
              [1.011478795654708, 42.787826955921147],
              [1.013373149066211, 42.788093466352969],
              [1.01463854831911, 42.788193300557346],
              [1.01592383784657, 42.787670542991705],
              [1.017425385236258, 42.78699578839025],
              [1.019634230027965, 42.78734551062206],
              [1.021342083848028, 42.786830006576409],
              [1.023563327951081, 42.786790540533119],
              [1.025364422025738, 42.786665914154533],
              [1.027266222542204, 42.786698726936926],
              [1.028863405720394, 42.786336932541587],
              [1.030470440358382, 42.785663823714607],
              [1.031654828538251, 42.784983420540705],
              [1.032593383271745, 42.785388893366004],
              [1.032784975653256, 42.786015111743673],
              [1.033391804275042, 42.786882065354177],
              [1.034986497987137, 42.786598008006429],
              [1.036369866702169, 42.786310301045425],
              [1.037534537307803, 42.78625242196857],
              [1.036411684988261, 42.784987306403835],
              [1.036438742376354, 42.784131250866047],
              [1.030579844298951, 42.775543194773576],
              [1.030818252120389, 42.774690777963087],
              [1.030833051950557, 42.774223839431066],
              [1.03085031797475, 42.773679077756455],
              [1.031395748016192, 42.773143406179933],
              [1.031523571696891, 42.772444815621725],
              [1.030486989663485, 42.771804049465132],
              [1.028593048013055, 42.771537830205943],
              [1.028197694050994, 42.770674495062167],
              [1.028227328420358, 42.769740618791488],
              [1.027834459914567, 42.768799459447813],
              [1.027021578751876, 42.767773190080774],
              [1.027601567628722, 42.766148013263503],
              [1.02910987696009, 42.7652396207964],
              [1.029785534485686, 42.763927542808972],
              [1.02952543101511, 42.762132152329507],
              [1.02893370052764, 42.760798241825277],
              [1.028115962806748, 42.759927627026705],
              [1.028459945425758, 42.759077032651504],
              [1.028924331416194, 42.757761317191608],
              [1.029781518177052, 42.75738675395079],
              [1.030302151642082, 42.757629316245875],
              [1.030530623712686, 42.757088189395816],
              [1.033114408764942, 42.755575325033611],
              [1.032414593894586, 42.754317438638502],
              [1.031292410632531, 42.753052280351774],
              [1.030383931016742, 42.751712924513399],
              [1.030307918093747, 42.750777225913652],
              [1.029711337572492, 42.749598965601692],
              [1.029117245383874, 42.748342879056068],
              [1.02883007521968, 42.747403541266749],
              [1.028542913196247, 42.746464202791536],
              [1.027963678289335, 42.744741170506117],
              [1.02727642360374, 42.743094138338193],
              [1.027541883185394, 42.741385665005197],
              [1.028200027727026, 42.740618350403928],
              [1.028322873302626, 42.740075405890884],
              [1.028659334733625, 42.739458276152654],
              [1.028269099922276, 42.738439293960198],
              [1.029339633186396, 42.737990542553199],
              [1.029683467289091, 42.737139938534575],
              [1.029826008985812, 42.73597440318985],
              [1.030287712568598, 42.734736496567947],
              [1.030091361522423, 42.734265919837092],
              [1.029895013315043, 42.733795342794586],
              [1.029075136236948, 42.733002561660605],
              [1.029303520803892, 42.732461433390519],
              [1.028891126546403, 42.732142865149612],
              [1.027729929176227, 42.732122854006526],
              [1.0272292546218, 42.731257695605279],
              [1.02682675042143, 42.730627826227384],
              [1.026323631325134, 42.729840487661512],
              [1.02623041451464, 42.729449549246461],
              [1.024860621990005, 42.729348044378],
              [1.024465565427725, 42.728484696987636],
              [1.023530383436752, 42.728001349309636],
              [1.022288443280599, 42.727201227608816],
              [1.022519335910782, 42.726582289800994],
              [1.022787310521271, 42.724796000701872],
              [1.02269412228988, 42.724405059703194],
              [1.023666313738022, 42.723721061718344],
              [1.02400766796751, 42.722948296175879],
              [1.024029903868387, 42.722247884895651],
              [1.025267468830022, 42.719855403772208],
              [1.027099255950708, 42.715370777268902],
              [1.027565792493765, 42.71397723236813],
              [1.028018004960449, 42.709702394021178],
              [1.012410264358075, 42.709120878376226],
              [1.01080005708749, 42.709949422530144],
              [1.009310266152079, 42.710312843016425],
              [1.008227622117479, 42.711150527702415],
              [1.007142457653554, 42.712066023917778],
              [1.005200554181555, 42.713355905949413],
              [0.993259956922091, 42.700532835202203],
              [0.992727400477725, 42.700679226291989],
              [0.991674828826778, 42.700582891274735],
              [0.990840808279046, 42.700256786323735],
              [0.990320805565172, 42.700014056803489],
              [0.989584769637753, 42.699923261488451],
              [0.988537243484716, 42.699671254405217],
              [0.986964712933411, 42.699332136993178],
              [0.985281660351514, 42.699146784020897],
              [0.983699084534737, 42.699118908726994],
              [0.982651597334666, 42.698866848584906],
              [0.980752520207025, 42.698833362990626],
              [0.976536241815384, 42.692140311429995],
              [0.977104136040117, 42.690904491791613],
              [0.977875406895262, 42.689905859439811],
              [0.979071126588457, 42.688836848958907],
              [0.980136091429795, 42.68854417917894],
              [0.981746124953743, 42.687716047384249],
              [0.983260709371302, 42.686574755912446],
              [0.983720418935908, 42.685414865343731],
              [0.985666895417347, 42.683969688531214],
              [0.986332466151085, 42.682969142432668],
              [0.985734814313025, 42.681868498171809],
              [0.984501820448476, 42.680834528751745],
              [0.983067995906325, 42.679485541983269],
              [0.983208723718064, 42.678397895735976],
              [0.982925054080071, 42.677380635707387],
              [0.982307358787233, 42.676902549457644],
              [0.980311043353284, 42.676633750476988],
              [0.977726002368693, 42.668490032952711],
              [0.973984040091881, 42.650514750689247],
              [0.972513180513627, 42.650332984377513],
              [0.972767020139378, 42.649013760544342],
              [0.972722296614031, 42.647144189583692],
              [0.972361331633028, 42.645269018569735],
              [0.972050148902682, 42.645107776122643],
              [0.971106487598794, 42.644935327843235],
              [0.971126732913957, 42.644312759914072],
              [0.971247328007223, 42.643847701590452],
              [0.97105168895507, 42.643377040138063],
              [0.970532229217853, 42.643134237043562],
              [0.971102299659743, 42.641820619798658],
              [0.970407474286178, 42.640484586575084],
              [0.968954589532867, 42.63975803268783],
              [0.969514530885345, 42.638755706600321],
              [0.969002712766906, 42.638279434384181],
              [0.969549979583172, 42.637666212578914],
              [0.968714369942066, 42.637417794856191],
              [0.968626700859762, 42.63687117828443],
              [0.967186592573649, 42.635755499037842],
              [0.965643675726499, 42.634560109319025],
              [0.964190981517072, 42.633833498439607],
              [0.963393531965977, 42.632417731448612],
              [0.963411305349316, 42.631872985959511],
              [0.962033600106418, 42.63208207270803],
              [0.961416501178749, 42.631603892761092],
              [0.960478157515608, 42.631275720193713],
              [0.961454621791425, 42.630436582216568],
              [0.961893961306859, 42.629899340883867],
              [0.960870588293559, 42.628946730420424],
              [0.960903631966188, 42.627935061172664],
              [0.961666730670584, 42.62716998715041],
              [0.961907982123048, 42.626239889214894],
              [0.96162486641934, 42.625222591844235],
              [0.959267262151132, 42.623156084816614],
              [0.959307954407083, 42.621910953397609],
              [0.960163659103221, 42.62153686898575],
              [0.960397282602649, 42.620840235747039],
              [0.96041761630251, 42.620217669377112],
              [0.961393904944293, 42.619378526664846],
              [0.960581440629953, 42.618429667205334],
              [0.962200058835945, 42.617290490288823],
              [0.96159325821054, 42.616501029576902],
              [0.962872873198677, 42.616056602970296],
              [0.962887936952554, 42.61559476027103],
              [0.962900793760917, 42.615200572132522],
              [0.964571390761844, 42.615697474458898],
              [0.966360049973207, 42.615807118375123],
              [0.96762948975615, 42.615673922283342],
              [0.969122305990732, 42.615155342860994],
              [0.969047309552697, 42.614219618672713],
              [0.968550872913781, 42.613276419100536],
              [0.96858377591972, 42.612264742161315],
              [0.969143462812232, 42.611262408160037],
              [0.969065938259147, 42.610404504839316],
              [0.969334839552461, 42.608618370307788],
              [0.968013353365398, 42.607115493016181],
              [0.967442022267844, 42.605236590844861],
              [0.966742585088418, 42.604056197329626],
              [0.965917561173383, 42.603496490108618],
              [0.964447816533674, 42.603314644824231],
              [0.962127720531514, 42.603351247314606],
              [0.960131276323695, 42.603159972692559],
              [0.958368416475319, 42.602272040923829],
              [0.95765391907902, 42.601558513739377],
              [0.953548204080138, 42.601407352654057],
              [0.953514225777503, 42.599226518606294],
              [0.953893933584935, 42.597286671828947],
              [0.953356228100596, 42.594396047216762],
              [0.950242324967592, 42.592938777114675],
              [0.947940494437054, 42.592430360736749],
              [0.946797261841399, 42.591942676807179],
              [0.945170919069691, 42.590122602192942],
              [0.94370923114565, 42.589707037790383],
              [0.941818601461335, 42.589517342282221],
              [0.939606898462639, 42.589477569908908],
              [0.937490249808564, 42.589750928478267],
              [0.935460915641838, 42.590570879967743],
              [0.933760355493022, 42.591007401127733],
              [0.932612115873272, 42.590675215577086],
              [0.931019431512216, 42.591035778106367],
              [0.928599627124103, 42.590914167623318],
              [0.927127717812042, 42.590809668082279],
              [0.925414213631502, 42.591635169346354],
              [0.924145214385307, 42.591767915863109],
              [0.922991870799298, 42.591591283343476],
              [0.92160978829116, 42.591955547874228],
              [0.919051037643476, 42.592843488274532],
              [0.918082417745343, 42.593448814634762],
              [0.917396046557035, 42.595071512673556],
              [0.916072485937226, 42.596838348842724],
              [0.914782597398149, 42.597593533180039],
              [0.91534449634659, 42.599706120586582],
              [0.914773699659366, 42.601019442632911],
              [0.914518887986863, 42.602338513622946],
              [0.91373217449718, 42.603803629713703],
              [0.913271841667667, 42.604963224216561],
              [0.912400518009589, 42.605803867877242],
              [0.911842601532355, 42.606728082497114],
              [0.910986842978134, 42.607101807809613],
              [0.909501607646113, 42.607386177373265],
              [0.908435135746921, 42.607756038438737],
              [0.906757431103225, 42.607491802533481],
              [0.905490685179855, 42.607546516307607],
              [0.903892240355888, 42.608062338440583],
              [0.902918013084283, 42.60882316091417],
              [0.901725225963357, 42.609813567419764],
              [0.901080065370662, 42.610191076694086],
              [0.899821108776749, 42.610012273164152],
              [0.898670125869217, 42.609757573010086],
              [0.897914363487288, 42.610288766739941],
              [0.896729331767761, 42.611045675271974],
              [0.895870807839669, 42.611497105353976],
              [0.895028001227092, 42.611481622997523],
              [0.893869143218255, 42.611460324643062],
              [0.892915739239563, 42.611598525013463],
              [0.891849103769799, 42.611968231110602],
              [0.893110697175188, 42.612069305136963],
              [0.893742807214196, 42.612080928203142],
              [0.894899054810004, 42.612180045707746],
              [0.895101894112169, 42.612417369995299],
              [0.895383875247928, 42.613434805510003],
              [0.895028486528388, 42.614596262501642],
              [0.8948837997278, 42.6157615900173],
              [0.895803190649353, 42.616635003475437],
              [0.896409144381401, 42.617424788904657],
              [0.89637245789323, 42.618514235273977],
              [0.895598218054554, 42.619590135409574],
              [0.894808215006102, 42.621132934330078],
              [0.896033301053266, 42.622323425512782],
              [0.896518214710165, 42.623578180844937],
              [0.896173267229473, 42.624428368570719],
              [0.896039058008535, 42.625282425714381],
              [0.895593962743895, 42.625975040786969],
              [0.894224086514923, 42.625949867982932],
              [0.892954336021528, 42.626082251635715],
              [0.891887450906362, 42.626451951307637],
              [0.890067145171721, 42.627274960032373],
              [0.885214545125007, 42.627341211080314],
              [0.884260882018098, 42.627479332747129],
              [0.883810367843423, 42.628327531857664],
              [0.883365116374521, 42.629020095269695],
              [0.882788089914374, 42.630488876175967],
              [0.881613050170018, 42.630934345486139],
              [0.880221944157366, 42.631531535431577],
              [0.878733358707829, 42.631893306907571],
              [0.87789028734782, 42.631877691929972],
              [0.877160537224601, 42.631630574564419],
              [0.876646851290743, 42.63123172690522],
              [0.87620198448838, 42.62880965156122],
              [0.875817527460806, 42.627712406881294],
              [0.875643832929472, 42.626619069459835],
              [0.874816722181746, 42.626136535401081],
              [0.87315193932981, 42.625482715236593],
              [0.871687328151369, 42.62514405194711],
              [0.870649529677484, 42.624657574715826],
              [0.870157175979145, 42.623636172634903],
              [0.868071061104481, 42.622974452230089],
              [0.866087699010703, 42.622392473107155],
              [0.865144725540788, 42.62221917641881],
              [0.863261457098835, 42.621794744295784],
              [0.861797007203561, 42.621455963211574],
              [0.860427275709085, 42.621430393920626],
              [0.859165576731496, 42.621328961383277],
              [0.857379734834117, 42.621139849274208],
              [0.85646083973549, 42.620266142719693],
              [0.855436610030487, 42.619390457320137],
              [0.854396373005904, 42.618981655573343],
              [0.853145432715748, 42.618568896705547],
              [0.851583788298619, 42.617994567987687],
              [0.850024851226053, 42.617342403437767],
              [0.848790050899378, 42.616462707534652],
              [0.84681513179853, 42.615646957956479],
              [0.84675805177265, 42.614244307754724],
              [0.846668792018002, 42.613775437749041],
              [0.845104645058416, 42.613278839487542],
              [0.843961916368993, 42.612790150357831],
              [0.844199460538134, 42.612015965553844],
              [0.843931750218513, 42.610609350429819],
              [0.842781020201703, 42.61035409539528],
              [0.842175829726243, 42.609564049487723],
              [0.840833267927518, 42.608760111087221],
              [0.839582627784767, 42.608347213994179],
              [0.837681116556088, 42.608467075903306],
              [0.836311691489495, 42.608441225275875],
              [0.834537088917093, 42.607940513218928],
              [0.831222954841497, 42.606242673421725],
              [0.826409979885501, 42.605217098458454],
              [0.825110761575645, 42.606204687370095],
              [0.823795240995275, 42.607659139893109],
              [0.822798391414888, 42.609041767611153],
              [0.821909554475969, 42.610348577565354],
              [0.821868868720693, 42.611515783740835],
              [0.820780144213766, 42.612507331081339],
              [0.81874597262921, 42.61340300787149],
              [0.816609114126952, 42.614218826097691],
              [0.815012560422326, 42.614655583002978],
              [0.813119011195381, 42.614541593817584],
              [0.813277961939509, 42.616024066226032],
              [0.813345183570429, 42.617115461710547],
              [0.813312499759027, 42.618049220076855],
              [0.813171734654544, 42.619058780725368],
              [0.811486041922735, 42.619026596063598],
              [0.810121874165563, 42.618844801757596],
              [0.808746797135901, 42.618974243131653],
              [0.807052916869316, 42.619175431956869],
              [0.806804019573713, 42.619136438426821],
              [0.804221993960433, 42.618731890422694],
              [0.801307669662283, 42.617663757697628],
              [0.799217065239833, 42.61715643114475],
              [0.797215385081606, 42.617117966684795],
              [0.796510859207732, 42.616170038890019],
              [0.795066171087246, 42.615285730896936],
              [0.793494193016632, 42.615021874408072],
              [0.791376238490798, 42.61529252923664],
              [0.789150165343321, 42.615638923717619],
              [0.787988578387048, 42.615694369787555],
              [0.78588712724375, 42.615498051004771],
              [0.784431572919563, 42.614924859550463],
              [0.782346733124634, 42.614261606711558],
              [0.780982768282531, 42.614079469435907],
              [0.779629873035833, 42.613586070226219],
              [0.778060778729139, 42.613244192832191],
              [0.77669131296408, 42.613217627908121],
              [0.775116704060142, 42.61303133328142],
              [0.772918370559338, 42.612599300309718],
              [0.771144209869892, 42.61209761213275],
              [0.769802548553334, 42.611292855437178],
              [0.768571817670376, 42.610334513381154],
              [0.767962027054681, 42.609699717976497],
              [0.767110989602635, 42.609916730187294],
              [0.76401723431612, 42.610946508198538],
              [0.760618514694094, 42.611658782720504],
              [0.757341829810971, 42.61190615353155],
              [0.75342469548694, 42.612374468842255],
              [0.750569316698938, 42.612629905169889],
              [0.748440084465796, 42.613211001909995],
              [0.747577721495124, 42.613739106338464],
              [0.746277132794166, 42.614725774285297],
              [0.745095889890137, 42.615325451681798],
              [0.743862667924188, 42.614444660630113],
              [0.742831730013351, 42.613801436206458],
              [0.741798001186248, 42.613236012375481],
              [0.740764291254956, 42.612670579585291],
              [0.739619632007875, 42.612258678436419],
              [0.738028284964702, 42.612538732001731],
              [0.736311851624329, 42.613361346124648],
              [0.734145788335122, 42.614953691465466],
              [0.732135802535069, 42.615147517836824],
              [0.73066665362387, 42.614962698324057],
              [0.729180545365462, 42.615244712734636],
              [0.727264559345631, 42.615751775651994],
              [0.724705141693799, 42.616557489317188],
              [0.723853878222077, 42.616774175157275],
              [0.722669553916866, 42.617451423495837],
              [0.721599065098994, 42.61789732898923],
              [0.720631069752978, 42.618423128262826],
              [0.719122110370945, 42.619327474656309],
              [0.717849393479577, 42.619535724441832],
              [0.716670641543813, 42.620057291589397],
              [0.715619985758669, 42.619958483005107],
              [0.713820495058, 42.620156183461589],
              [0.712775541391884, 42.619901733148524],
              [0.711072841509847, 42.620334916656141],
              [0.709802933796458, 42.620465268161546],
              [0.708419107228864, 42.6208269210439],
              [0.707015270682038, 42.621733209221041],
              [0.705614251803046, 42.622561671705654],
              [0.704748548772069, 42.623167248649104],
              [0.702906016069104, 42.624531882861667],
              [0.701593060619649, 42.625829247781596],
              [0.700493636421247, 42.627053018838552],
              [0.698317600893301, 42.628878070290902],
              [0.698892436232675, 42.630446908487016],
              [0.700019938178378, 42.631326059657965],
              [0.701037271046299, 42.632485014272525],
              [0.701133147912238, 42.632594235428932],
              [0.70099339787528, 42.633525805057737],
              [0.699987727651282, 42.635062908778394],
              [0.699739711013319, 42.636070167260812],
              [0.699784882130678, 42.637706227734093],
              [0.701894711362027, 42.640551689982992],
              [0.699982776033693, 42.643783624841348],
              [0.698774729612378, 42.645083058727423],
              [0.698084986949906, 42.646626488271473],
              [0.698161680908974, 42.647406672614814],
              [0.69704456309175, 42.649097235777354],
              [0.696679545937883, 42.650413590316077],
              [0.695781756335925, 42.651874956990838],
              [0.695741527453598, 42.652964247471729],
              [0.696122919320134, 42.654062017792633],
              [0.695666810747553, 42.654987214876435],
              [0.695313222551515, 42.655992336775192],
              [0.695278728819922, 42.656926013371198],
              [0.695443559929332, 42.658175156634933],
              [0.695628516985395, 42.658879655013841],
              [0.693614148279149, 42.659150573749038],
              [0.692662543132089, 42.659209275081579],
              [0.691058290955927, 42.659799865022578],
              [0.688713214608226, 42.660453351910725],
              [0.686798415364534, 42.6608818874682],
              [0.685791930273398, 42.66241884166034],
              [0.685326940866768, 42.663577408708385],
              [0.684768064074747, 42.664422619778918],
              [0.684323262676408, 42.665036541796262],
              [0.682624924739981, 42.665313654099023],
              [0.681237059898563, 42.665752754946467],
              [0.680256407467197, 42.666589408738773],
              [0.680218784658692, 42.667600883631501],
              [0.680283694926167, 42.668692299076838],
              [0.677941075969825, 42.669267751052132],
              [0.676638231048206, 42.670253570081051],
              [0.675871211033095, 42.671016653684937],
              [0.675725176423849, 42.672103790837276],
              [0.674609895186466, 42.673716305746673],
              [0.674133000262614, 42.675186044554145],
              [0.674089461434129, 42.676353124118059],
              [0.673940476237693, 42.677518062287639],
              [0.673776967956584, 42.679072026129077],
              [0.672262951326475, 42.680053504271427],
              [0.671586670827347, 42.681207722137863],
              [0.66925514035439, 42.681471761895224],
              [0.667020306369524, 42.681971315900988],
              [0.665509028687873, 42.682874895218021],
              [0.664302405703018, 42.684096123271985],
              [0.662981526336245, 42.685548599380191],
              [0.662202472096572, 42.686622799013826],
              [0.660576789582671, 42.687757568992801],
              [0.659827159987428, 42.69085681718164],
              [0.662126965359004, 42.691448828069049],
              [0.663287097158801, 42.691472500846075],
              [0.664359261767575, 42.691027184053453],
              [0.666286789093242, 42.690287831243729],
              [0.668009167487499, 42.689388541184613],
              [0.669479836938334, 42.689574200869416],
              [0.672406673750278, 42.69033448922147],
              [0.674826573464284, 42.690539365009634],
              [0.676493372146077, 42.690968038733125],
              [0.676341831788528, 42.6923609871411],
              [0.676201542479851, 42.693292509788044],
              [0.676072856376921, 42.693912811374936],
              [0.675200052387535, 42.694673740492874],
              [0.674002090418281, 42.695661652406244],
              [0.673598507654988, 42.697989376161217],
              [0.674475202630067, 42.699953778187115],
              [0.675357757909057, 42.701762564162287],
              [0.676890702606672, 42.703117352370683],
              [0.678555302803039, 42.703774012962775],
              [0.680519023364516, 42.704903890641425],
              [0.681638874650589, 42.706016657452551],
              [0.682533300214151, 42.707514172082902],
              [0.682486974188746, 42.708759057276318],
              [0.681921837141151, 42.709759851929007],
              [0.68116306397805, 42.710289540357095],
              [0.680301675674129, 42.710739281635597],
              [0.678798567038114, 42.711409604866581],
              [0.676826969806561, 42.713316228079243],
              [0.674618081407075, 42.715918773077],
              [0.673167953898668, 42.71799164442713],
              [0.672810697714647, 42.719074478557012],
              [0.674027446278608, 42.720422877964097],
              [0.676088399729839, 42.721788398537207],
              [0.677856101724152, 42.722525027399811],
              [0.679626746751716, 42.723183824658001],
              [0.678935593581637, 42.72472710000978],
              [0.678572592398669, 42.725965566504051],
              [0.677570599674668, 42.7273468041681],
              [0.677008109231013, 42.728269764068436],
              [0.675393193111634, 42.729093501388199],
              [0.674000931850373, 42.729610282125819],
              [0.672608647976178, 42.730127045312905],
              [0.67057440296201, 42.730864328101816],
              [0.670085266912957, 42.73264524703113],
              [0.669722037286225, 42.733883678404553],
              [0.668842746956504, 42.734800150314769],
              [0.668265477332933, 42.736112083476648],
              [0.66674703265968, 42.737171251728292],
              [0.666805892256158, 42.738418270947101],
              [0.666436721890465, 42.73981229685667],
              [0.666715432102225, 42.740830203837163],
              [0.666689167390358, 42.74153044219652],
              [0.664235187389755, 42.74218119318386],
              [0.662936401715647, 42.743011197677312],
              [0.662786996405034, 42.744176103807654],
              [0.662743142452079, 42.745343163679046],
              [0.663426513661984, 42.746836517234172],
              [0.663804917704281, 42.748012191381164],
              [0.663649666589913, 42.749332705769405],
              [0.662142512314856, 42.750080585101692],
              [0.661166083986688, 42.750761420637424],
              [0.660274710473545, 42.751989030334755],
              [0.648351369581708, 42.751589085728106],
              [0.647190129523018, 42.75156523469019],
              [0.639679368765103, 42.754603085530938],
              [0.650470450745907, 42.762611326689466],
              [0.65074898324748, 42.763629264881416],
              [0.650605164871507, 42.764638538292175],
              [0.650992239278198, 42.76558083903376],
              [0.65233554073691, 42.766387018858964],
              [0.653587969875019, 42.766802004272144],
              [0.654514824061893, 42.767443898261035],
              [0.656066470727232, 42.768332164784319],
              [0.658263478112293, 42.768922155617282],
              [0.660991451597122, 42.769445087214471],
              [0.662862971010107, 42.77026193142656],
              [0.66470530181727, 42.77185678347751],
              [0.666348203032265, 42.773136088571555],
              [0.668633576411464, 42.774194861620622],
              [0.667108334550908, 42.775409613192018],
              [0.664975681612118, 42.775911190305408],
              [0.662432261768131, 42.776092890084016],
              [0.660314200674642, 42.776205361380839],
              [0.659457595461766, 42.776499309656252],
              [0.657436327893594, 42.776847296041034],
              [0.656045773748265, 42.777286022165526],
              [0.654147701938869, 42.777169291660783],
              [0.653408422465034, 42.777154144812414],
              [0.651228549634319, 42.778900312596406],
              [0.649790815795674, 42.780583808355892],
              [0.648482183871465, 42.781647029880503],
              [0.647079675518001, 42.782396854337897],
              [0.646108461734566, 42.782921937786952],
              [0.646389948446056, 42.783862083392002],
              [0.647507593289338, 42.785052998858085],
              [0.649394109991926, 42.785481055955486],
              [0.650547158950304, 42.785738309387249],
              [0.652392550737311, 42.78725556029665],
              [0.652882470390374, 42.788277826243345],
              [0.653853538404827, 42.79055576170753],
              [0.654437387374269, 42.791891398254961],
              [0.6552325380182, 42.793231358697994],
              [0.656265434378798, 42.793875410728262],
              [0.657703307823842, 42.794994917682693],
              [0.658698120466818, 42.796650390871072],
              [0.660224156033609, 42.798238848108276],
              [0.662337113156575, 42.79828200415951],
              [0.664538162950743, 42.798794097392296],
              [0.665565398954431, 42.79959367671762],
              [0.666789344819537, 42.800786571409432],
              [0.667394026719594, 42.801577523375641],
              [0.669489583517427, 42.802087372636855],
              [0.670182448413507, 42.803347283991648],
              [0.670658182492914, 42.80475850058874],
              [0.670605626682757, 42.806158968990388],
              [0.669379073112384, 42.807846999888731],
              [0.668897969379749, 42.809394469385431],
              [0.666820090646684, 42.811220862702285],
              [0.665484729182147, 42.812984495515614],
              [0.664654245247326, 42.815381315015259],
              [0.66565833162624, 42.816803324949859],
              [0.666556780799187, 42.818223173164029],
              [0.667666639660433, 42.819647320823847],
              [0.669624970170935, 42.821010866736913],
              [0.670106653897789, 42.822266477589473],
              [0.669948361599092, 42.823664790281278],
              [0.669384823983501, 42.82458767641036],
              [0.667761395288982, 42.825566837837201],
              [0.666032219096108, 42.826543820245391],
              [0.665251342326955, 42.827617980424598],
              [0.663751053545219, 42.828132417417116],
              [0.661801542348018, 42.829338427356667],
              [0.661105718583727, 42.830959335221792],
              [0.660644749915366, 42.831962134507137],
              [0.659737449921284, 42.833578714182941],
              [0.659364528624854, 42.835050486641435],
              [0.659226511019813, 42.835904157066921],
              [0.659062052577701, 42.837458052675849],
              [0.659059115128536, 42.83753585550992]
            ]
          ]
        ]
      }
    }
  ]
}
