{
  "type": "FeatureCollection",
  "name": "IT-65_outline",
  "crs": {
    "type": "name",
    "properties": { "name": "urn:ogc:def:crs:OGC:1.3:CRS84" }
  },
  "features": [
    {
      "type": "Feature",
      "properties": {
        "id": "IT-65",
        "aws": [
          {
            "name": "METEOMONT Carabinieri",
            "url": {
              "en": "https://meteomont.carabinieri.it/home?lang=en",
              "it": "https://meteomont.carabinieri.it/home?lang=it",
              "api": "https://servizimeteomont.csifa.carabinieri.it/api/meteomontweb/previsioni/getprevisionivalanghe/data?data={date}",
              "mail": "mailto:meteomont@carabinieri.it",
              "facebook": "https://www.facebook.com/carabinieri.it",
              "instagram": "https://www.instagram.com/armadeicarabinieri/?hl=en",
              "youtube": "https://www.youtube.com/channel/UCUDqf6fFfavY5bVw14358PA"
            }
          },
          {
            "name": "METEOMONT Esercito",
            "url": {
              "it": "https://www.meteomont.org/BOLLETTINI/"
            }
          }
        ]
      },
      "geometry": {
        "type": "MultiPolygon",
        "coordinates": [
          [
            [
              [13.977906078513232, 41.462487435788368],
              [13.992776635760501, 41.482081434986092],
              [13.9729068930107, 41.494036380269144],
              [14.027500416268168, 41.523208764002227],
              [14.005257074948361, 41.538753128116554],
              [14.022540942474262, 41.546190650894566],
              [13.882781789181225, 41.524121266963022],
              [13.717361313444124, 41.545972832720182],
              [13.639516383685464, 41.59693110840427],
              [13.581132686366454, 41.676927170122042],
              [13.454634675508634, 41.742304629247599],
              [13.298944815991344, 41.735043750583863],
              [13.184610075408331, 41.778596707918304],
              [13.148120264583973, 41.825745722524957],
              [12.93404670774768, 41.847495104268724],
              [12.929181399637745, 41.90183621923461],
              [12.865932394208821, 42.024838330631468],
              [12.827009929329526, 42.046519933752812],
              [12.836740545549349, 42.113324975415303],
              [12.807548696889842, 42.151210060673307],
              [12.858634432043941, 42.199886156512164],
              [12.775924194175408, 42.300724533337402],
              [12.800250734724976, 42.399605285540581],
              [12.904854859088157, 42.417566890820915],
              [12.904854859088156, 42.469626459781438],
              [12.81809425325268, 42.532990085099371],
              [12.892729022539905, 42.563497411655305],
              [12.880524112672797, 42.609347562854516],
              [12.896340286536374, 42.616444001883082],
              [12.930122744991976, 42.602882257782227],
              [12.95250182046354, 42.618925850452364],
              [13.011223255384632, 42.61710814550667],
              [13.024284676205674, 42.639036092398257],
              [13.061955466071339, 42.623100369824165],
              [13.118188111183214, 42.657653255561868],
              [13.15409283649217, 42.650691343856231],
              [13.179824412273668, 42.677588612532638],
              [13.187176452559768, 42.733741551788867],
              [13.200991738535649, 42.735182994520777],
              [13.206622523365256, 42.730966957758973],
              [13.249174745498573, 42.725907456619709],
              [13.254061605796997, 42.721506593173821],
              [13.260225720410794, 42.728183100852902],
              [13.264770031531834, 42.740613063679788],
              [13.286239706635184, 42.740245971390884],
              [13.295133716955776, 42.730326916242937],
              [13.310142117444254, 42.727591010025307],
              [13.316990233569904, 42.724127781259185],
              [13.340438009708643, 42.702169835839058],
              [13.357755645107757, 42.694098061224459],
              [13.369864828648058, 42.69260575047651],
              [13.373275616797494, 42.69527357551771],
              [13.388130283201539, 42.68717689038489],
              [13.400757899353767, 42.690784550963862],
              [13.402364342203326, 42.694226671247719],
              [13.413640627165213, 42.697456904786854],
              [13.426696056988371, 42.705917695752866],
              [13.430122931269597, 42.705582917233059],
              [13.433270616347077, 42.700866559501868],
              [13.437698204871658, 42.699377458354569],
              [13.440784252944226, 42.70354080805393],
              [13.436971077039649, 42.715007429538787],
              [13.441628872330538, 42.727194116308787],
              [13.447718523793798, 42.732256113599519],
              [13.464382372925524, 42.734814413873337],
              [13.481804693906151, 42.731283097098611],
              [13.48971535172292, 42.733402883221117],
              [13.498772261638821, 42.740301930629172],
              [13.501118681822211, 42.746078725492914],
              [13.505226806973875, 42.747274550756401],
              [13.502078417617234, 42.752210502348696],
              [13.504149306536656, 42.756812332436766],
              [13.502205650502502, 42.770664781479645],
              [13.516800118087843, 42.789904581474005],
              [13.529610818081514, 42.79565800313965],
              [13.534812820856351, 42.816757587650358],
              [13.544420059376566, 42.816326083768708],
              [13.555139162486865, 42.804080918384095],
              [13.568111601452507, 42.803894621343133],
              [13.573313459598573, 42.799888855724674],
              [13.581078629865164, 42.802700836034994],
              [13.584706696227318, 42.807616022211974],
              [13.601968767642727, 42.806202114325878],
              [13.609135999493276, 42.810820479131984],
              [13.617086260437652, 42.812124286629782],
              [13.618514749724358, 42.813364236053772],
              [13.620055151245799, 42.785538614573568],
              [13.652895980987729, 42.707828133252256],
              [13.627353113410653, 42.66222842460396],
              [13.627353113410663, 42.608538859491247],
              [13.598161264751168, 42.589736569061927],
              [13.649246999905284, 42.527917670721756],
              [13.674789867482357, 42.522539220093407],
              [13.725279903328989, 42.472654669238871],
              [13.774875081741964, 42.465127902381639],
              [13.843216763000067, 42.389503750698992],
              [13.851759473157351, 42.312691655342242],
              [13.835148647851534, 42.283906810100611],
              [13.869794083489342, 42.247731593266728],
              [13.843691358008817, 42.217159656776268],
              [13.821385392598184, 42.229109072852765],
              [13.807740786097014, 42.219620015550284],
              [13.695143120274189, 42.257216424598674],
              [13.595478168439435, 42.330587788020793],
              [13.448828310739781, 42.374779939003929],
              [13.397572049796183, 42.369871234484428],
              [13.31718972140353, 42.396012347315157],
              [13.193413545724153, 42.38792936598275],
              [13.153349002710218, 42.356994072126021],
              [13.22646298183005, 42.319330533690305],
              [13.23461347989015, 42.277865749817529],
              [13.281373360853305, 42.237771726425336],
              [13.339319458347841, 42.215991094731706],
              [13.43258874813562, 42.198309277850932],
              [13.442167323476983, 42.21148626836144],
              [13.433957116041507, 42.267204661666597],
              [13.399747918393677, 42.300612080369312],
              [13.397011182581839, 42.328943876551548],
              [13.453114266724297, 42.301624149851904],
              [13.465429577877524, 42.31275584048776],
              [13.480481624842572, 42.305672265106146],
              [13.488691832278073, 42.285429086052119],
              [13.550268388044188, 42.252013615558063],
              [13.570793906632909, 42.282392047980835],
              [13.602266368468907, 42.279354863510434],
              [13.75278683811943, 42.213513253733424],
              [13.844569046371197, 42.029803714271218],
              [13.89087974768697, 42.0243719925842],
              [14.003000392977803, 41.897500090644314],
              [14.049311094293541, 41.897500090644272],
              [14.071247742285221, 41.873910356142581],
              [14.110246227603762, 41.799454915903503],
              [14.080529132558972, 41.738220524781767],
              [14.107196496103185, 41.707358850269976],
              [14.121930654752543, 41.746480896022263],
              [14.15867747703475, 41.747024709850464],
              [14.171834052439483, 41.765774219434789],
              [14.194177407867356, 41.748144350723386],
              [14.201914373000678, 41.766994964156943],
              [14.171455043823702, 41.778436264134228],
              [14.147157882335573, 41.827297285200849],
              [14.216626657870709, 41.853437862500421],
              [14.279300964143344, 41.909518237162814],
              [14.323887061145713, 41.896292166931126],
              [14.343005922528343, 41.862521404463443],
              [14.376675708666319, 41.879928695674124],
              [14.378869620464867, 41.865873329076727],
              [14.397448098462647, 41.869743412559856],
              [14.442328674146056, 41.841255589631267],
              [14.465140215227278, 41.777175276769277],
              [14.454617665965808, 41.763651192330634],
              [14.487698990153127, 41.760256400755615],
              [14.478294432797535, 41.732189075131394],
              [14.424671515484516, 41.713997013092111],
              [14.502668486121605, 41.644820209064406],
              [14.497793675456785, 41.608381499678757],
              [14.517292918116063, 41.5792157053165],
              [14.40517227282524, 41.550036733263958],
              [14.405172272825252, 41.524494324165218],
              [14.478294432797524, 41.495290648313997],
              [14.600164699417983, 41.367369702831958],
              [14.56116621409943, 41.341755269356561],
              [14.527042539445688, 41.341755269356554],
              [14.5611662140994, 41.279506829690774],
              [14.483169243462324, 41.283170147830184],
              [14.341799734182635, 41.360052321782867],
              [14.258927952880695, 41.356393322696938],
              [14.210179846232545, 41.414912621429018],
              [14.178493403794757, 41.414914981730547],
              [14.161431739584344, 41.414912621429018],
              [14.161431739584343, 41.400287734367872],
              [14.106754724633177, 41.418968046408992],
              [14.111440636398758, 41.386434003466363],
              [14.084769192623936, 41.400034062575926],
              [14.042388571469932, 41.392780398725996],
              [14.000706726984816, 41.430932162591063],
              [14.00704043835411, 41.451875036850332],
              [13.977906078513232, 41.462487435788368]
            ]
          ],
          [
            [
              [13.885860616969561, 42.203884493861622],
              [13.954621104241738, 42.258596851534527],
              [14.037749454526004, 42.263913578910802],
              [14.087010699138881, 42.254798914645583],
              [14.124982908527983, 42.211486268361448],
              [14.162955117917086, 42.209965986642835],
              [14.217553576141269, 42.144360005818974],
              [14.243181706613042, 42.135210163643166],
              [14.252199011779073, 42.084157952149098],
              [14.274030382180937, 42.068658115610233],
              [14.265487672023694, 42.042229214223433],
              [14.302506082705175, 42.005915600555959],
              [14.29870932263527, 41.980519011092227],
              [14.269284432093585, 41.963582321896517],
              [14.286844447416868, 41.938874911219067],
              [14.224672501272309, 41.918395801950396],
              [14.200468155826767, 41.894730716548018],
              [14.208536270975276, 41.861867627150581],
              [14.10127779900075, 41.844899420787812],
              [13.953594828312275, 42.024217134065481],
              [13.992593313630836, 42.050894881054454],
              [13.857124890945354, 42.15368984128051],
              [13.825310337132876, 42.160536912721938],
              [13.82633661306232, 42.181073681940816],
              [13.885860616969561, 42.203884493861622]
            ]
          ]
        ]
      }
    }
  ]
}
