[
  {
    "id": "AT-06-15",
    "threshold": 2187,
    "elevation line_visualization": null,
    "start_date": null,
    "end_date": null,
    "elevation": "low"
  },
  {
    "id": "AT-06-14",
    "threshold": 1720,
    "elevation line_visualization": null,
    "start_date": null,
    "end_date": null,
    "elevation": "low"
  },
  {
    "id": "AT-06-10",
    "threshold": 2277,
    "elevation line_visualization": null,
    "start_date": null,
    "end_date": null,
    "elevation": "low"
  },
  {
    "id": "AT-06-08",
    "threshold": 0,
    "elevation line_visualization": null,
    "start_date": null,
    "end_date": "2023-10-01",
    "elevation": "low"
  },
  {
    "id": "AT-06-08-01",
    "threshold": 2300,
    "elevation line_visualization": null,
    "start_date": "2023-10-01",
    "end_date": null,
    "elevation": "low"
  },
  {
    "id": "AT-06-08-02",
    "threshold": 2379,
    "elevation line_visualization": null,
    "start_date": "2023-10-01",
    "end_date": null,
    "elevation": "low"
  },
  {
    "id": "AT-06-18",
    "threshold": 2442,
    "elevation line_visualization": null,
    "start_date": null,
    "end_date": null,
    "elevation": "low"
  },
  {
    "id": "AT-06-05",
    "threshold": 2375,
    "elevation line_visualization": null,
    "start_date": null,
    "end_date": null,
    "elevation": "low"
  },
  {
    "id": "AT-06-03",
    "threshold": 2369,
    "elevation line_visualization": null,
    "start_date": null,
    "end_date": null,
    "elevation": "low"
  },
  {
    "id": "AT-06-02",
    "threshold": 2388,
    "elevation line_visualization": null,
    "start_date": null,
    "end_date": null,
    "elevation": "low"
  },
  {
    "id": "AT-06-16",
    "threshold": 2066,
    "elevation line_visualization": null,
    "start_date": null,
    "end_date": null,
    "elevation": "low"
  },
  {
    "id": "AT-06-06",
    "threshold": 2448,
    "elevation line_visualization": null,
    "start_date": null,
    "end_date": null,
    "elevation": "low"
  },
  {
    "id": "AT-06-17",
    "threshold": 2396,
    "elevation line_visualization": null,
    "start_date": null,
    "end_date": null,
    "elevation": "low"
  },
  {
    "id": "AT-06-09",
    "threshold": 2214,
    "elevation line_visualization": null,
    "start_date": null,
    "end_date": null,
    "elevation": "low"
  },
  {
    "id": "AT-06-01",
    "threshold": 2995,
    "elevation line_visualization": null,
    "start_date": null,
    "end_date": null,
    "elevation": "low"
  },
  {
    "id": "AT-06-13",
    "threshold": 1782,
    "elevation line_visualization": null,
    "start_date": null,
    "end_date": null,
    "elevation": "low"
  },
  {
    "id": "AT-06-12",
    "threshold": 1656,
    "elevation line_visualization": null,
    "start_date": null,
    "end_date": null,
    "elevation": "low"
  },
  {
    "id": "AT-06-11",
    "threshold": 2007,
    "elevation line_visualization": null,
    "start_date": null,
    "end_date": null,
    "elevation": "low"
  },
  {
    "id": "AT-06-15",
    "threshold": 2187,
    "elevation line_visualization": null,
    "start_date": null,
    "end_date": null,
    "elevation": "high"
  },
  {
    "id": "AT-06-14",
    "threshold": 1720,
    "elevation line_visualization": null,
    "start_date": null,
    "end_date": null,
    "elevation": "high"
  },
  {
    "id": "AT-06-10",
    "threshold": 2270,
    "elevation line_visualization": null,
    "start_date": null,
    "end_date": null,
    "elevation": "high"
  },
  {
    "id": "AT-06-08",
    "threshold": 0,
    "elevation line_visualization": null,
    "start_date": null,
    "end_date": "2023-10-01",
    "elevation": "high"
  },
  {
    "id": "AT-06-08-01",
    "threshold": 2300,
    "elevation line_visualization": null,
    "start_date": "2023-10-01",
    "end_date": null,
    "elevation": "high"
  },
  {
    "id": "AT-06-08-02",
    "threshold": 2396,
    "elevation line_visualization": null,
    "start_date": "2023-10-01",
    "end_date": null,
    "elevation": "high"
  },
  {
    "id": "AT-06-18",
    "threshold": 2441,
    "elevation line_visualization": null,
    "start_date": null,
    "end_date": null,
    "elevation": "high"
  },
  {
    "id": "AT-06-05",
    "threshold": 2375,
    "elevation line_visualization": null,
    "start_date": null,
    "end_date": null,
    "elevation": "high"
  },
  {
    "id": "AT-06-03",
    "threshold": 2369,
    "elevation line_visualization": null,
    "start_date": null,
    "end_date": null,
    "elevation": "high"
  },
  {
    "id": "AT-06-02",
    "threshold": 2388,
    "elevation line_visualization": null,
    "start_date": null,
    "end_date": null,
    "elevation": "high"
  },
  {
    "id": "AT-06-16",
    "threshold": 2066,
    "elevation line_visualization": null,
    "start_date": null,
    "end_date": null,
    "elevation": "high"
  },
  {
    "id": "AT-06-04-01",
    "threshold": 2862,
    "elevation line_visualization": 0,
    "start_date": "2021-10-01",
    "end_date": null,
    "elevation": "high"
  },
  {
    "id": "AT-06-06",
    "threshold": 2448,
    "elevation line_visualization": null,
    "start_date": null,
    "end_date": null,
    "elevation": "high"
  },
  {
    "id": "AT-06-17",
    "threshold": 2396,
    "elevation line_visualization": null,
    "start_date": null,
    "end_date": null,
    "elevation": "high"
  },
  {
    "id": "AT-06-09",
    "threshold": 2214,
    "elevation line_visualization": null,
    "start_date": null,
    "end_date": null,
    "elevation": "high"
  },
  {
    "id": "AT-06-01",
    "threshold": 2995,
    "elevation line_visualization": null,
    "start_date": null,
    "end_date": null,
    "elevation": "high"
  },
  {
    "id": "AT-06-13",
    "threshold": 1782,
    "elevation line_visualization": null,
    "start_date": null,
    "end_date": null,
    "elevation": "high"
  },
  {
    "id": "AT-06-12",
    "threshold": 1656,
    "elevation line_visualization": null,
    "start_date": null,
    "end_date": null,
    "elevation": "high"
  },
  {
    "id": "AT-06-11",
    "threshold": 2007,
    "elevation line_visualization": null,
    "start_date": null,
    "end_date": null,
    "elevation": "high"
  },
  {
    "id": "AT-06-04-02",
    "threshold": 2742,
    "elevation line_visualization": 0,
    "start_date": "2021-10-01",
    "end_date": null,
    "elevation": "high"
  },
  {
    "id": "AT-06-04-01",
    "threshold": 2862,
    "elevation line_visualization": 0,
    "start_date": "2021-10-01",
    "end_date": null,
    "elevation": "low"
  },
  {
    "id": "AT-06-04-02",
    "threshold": 2742,
    "elevation line_visualization": 0,
    "start_date": "2021-10-01",
    "end_date": null,
    "elevation": "low"
  },
  {
    "id": "AT-06-07",
    "threshold": 2475,
    "elevation line_visualization": null,
    "start_date": null,
    "end_date": null,
    "elevation": "low"
  },
  {
    "id": "AT-06-07",
    "threshold": 2475,
    "elevation line_visualization": null,
    "start_date": null,
    "end_date": null,
    "elevation": "high"
  },
  {
    "id": "AT-06-04",
    "threshold": 0,
    "elevation line_visualization": 0,
    "start_date": null,
    "end_date": "2021-10-01",
    "elevation": "high"
  },
  {
    "id": "AT-06-04",
    "threshold": 0,
    "elevation line_visualization": 0,
    "start_date": null,
    "end_date": "2021-10-01",
    "elevation": "low"
  }
]