[
  {
    "id": "IT-23-AO-17",
    "start_date": "2022-03-04",
    "end_date": null,
    "elevation": "high",
    "threshold": null,
    "elevation line_visualization": null
  },
  {
    "id": "IT-23-AO-15",
    "start_date": "2022-03-04",
    "end_date": null,
    "elevation": "high",
    "threshold": null,
    "elevation line_visualization": null
  },
  {
    "id": "IT-23-AO-14",
    "start_date": "2022-03-04",
    "end_date": null,
    "elevation": "high",
    "threshold": null,
    "elevation line_visualization": null
  },
  {
    "id": "IT-23-AO-18",
    "start_date": "2022-03-04",
    "end_date": null,
    "elevation": "high",
    "threshold": null,
    "elevation line_visualization": null
  },
  {
    "id": "IT-23-AO-02",
    "start_date": "2022-03-04",
    "end_date": null,
    "elevation": "high",
    "threshold": null,
    "elevation line_visualization": null
  },
  {
    "id": "IT-23-AO-22",
    "start_date": "2022-03-04",
    "end_date": null,
    "elevation": "high",
    "threshold": null,
    "elevation line_visualization": null
  },
  {
    "id": "IT-23-AO-08",
    "start_date": "2022-03-04",
    "end_date": null,
    "elevation": "high",
    "threshold": null,
    "elevation line_visualization": null
  },
  {
    "id": "IT-23-AO-10",
    "start_date": "2022-03-04",
    "end_date": null,
    "elevation": "high",
    "threshold": null,
    "elevation line_visualization": null
  },
  {
    "id": "IT-23-AO-26",
    "start_date": "2022-03-04",
    "end_date": null,
    "elevation": "high",
    "threshold": null,
    "elevation line_visualization": null
  },
  {
    "id": "IT-23-AO-11",
    "start_date": "2022-03-04",
    "end_date": null,
    "elevation": "high",
    "threshold": null,
    "elevation line_visualization": null
  },
  {
    "id": "IT-23-AO-04",
    "start_date": "2022-03-04",
    "end_date": null,
    "elevation": "high",
    "threshold": null,
    "elevation line_visualization": null
  },
  {
    "id": "IT-23-AO-13",
    "start_date": "2022-03-04",
    "end_date": null,
    "elevation": "high",
    "threshold": null,
    "elevation line_visualization": null
  },
  {
    "id": "IT-23-AO-12",
    "start_date": "2022-03-04",
    "end_date": null,
    "elevation": "high",
    "threshold": null,
    "elevation line_visualization": null
  },
  {
    "id": "IT-23-AO-21",
    "start_date": "2022-03-04",
    "end_date": null,
    "elevation": "high",
    "threshold": null,
    "elevation line_visualization": null
  },
  {
    "id": "IT-23-AO-16",
    "start_date": "2022-03-04",
    "end_date": null,
    "elevation": "high",
    "threshold": null,
    "elevation line_visualization": null
  },
  {
    "id": "IT-23-AO-20",
    "start_date": "2022-03-04",
    "end_date": null,
    "elevation": "high",
    "threshold": null,
    "elevation line_visualization": null
  },
  {
    "id": "IT-23-AO-23",
    "start_date": "2022-03-04",
    "end_date": null,
    "elevation": "high",
    "threshold": null,
    "elevation line_visualization": null
  },
  {
    "id": "IT-23-AO-19",
    "start_date": "2022-03-04",
    "end_date": null,
    "elevation": "high",
    "threshold": null,
    "elevation line_visualization": null
  },
  {
    "id": "IT-23-AO-24",
    "start_date": "2022-03-04",
    "end_date": null,
    "elevation": "high",
    "threshold": null,
    "elevation line_visualization": null
  },
  {
    "id": "IT-23-AO-06",
    "start_date": "2022-03-04",
    "end_date": null,
    "elevation": "high",
    "threshold": null,
    "elevation line_visualization": null
  },
  {
    "id": "IT-23-AO-03",
    "start_date": "2022-03-04",
    "end_date": null,
    "elevation": "high",
    "threshold": null,
    "elevation line_visualization": null
  },
  {
    "id": "IT-23-AO-25",
    "start_date": "2022-03-04",
    "end_date": null,
    "elevation": "high",
    "threshold": null,
    "elevation line_visualization": null
  },
  {
    "id": "IT-23-AO-05",
    "start_date": "2022-03-04",
    "end_date": null,
    "elevation": "high",
    "threshold": null,
    "elevation line_visualization": null
  },
  {
    "id": "IT-23-AO-07",
    "start_date": "2022-03-04",
    "end_date": null,
    "elevation": "high",
    "threshold": null,
    "elevation line_visualization": null
  },
  {
    "id": "IT-23-AO-01",
    "start_date": "2022-03-04",
    "end_date": null,
    "elevation": "high",
    "threshold": null,
    "elevation line_visualization": null
  },
  {
    "id": "IT-23-AO-09",
    "start_date": "2022-03-04",
    "end_date": null,
    "elevation": "high",
    "threshold": null,
    "elevation line_visualization": null
  },
  {
    "id": "IT-23-AO-17",
    "start_date": "2022-03-04",
    "end_date": null,
    "elevation": "low",
    "threshold": null,
    "elevation line_visualization": null
  },
  {
    "id": "IT-23-AO-18",
    "start_date": "2022-03-04",
    "end_date": null,
    "elevation": "low",
    "threshold": null,
    "elevation line_visualization": null
  },
  {
    "id": "IT-23-AO-14",
    "start_date": "2022-03-04",
    "end_date": null,
    "elevation": "low",
    "threshold": null,
    "elevation line_visualization": null
  },
  {
    "id": "IT-23-AO-01",
    "start_date": "2022-03-04",
    "end_date": null,
    "elevation": "low",
    "threshold": null,
    "elevation line_visualization": null
  },
  {
    "id": "IT-23-AO-15",
    "start_date": "2022-03-04",
    "end_date": null,
    "elevation": "low",
    "threshold": null,
    "elevation line_visualization": null
  },
  {
    "id": "IT-23-AO-22",
    "start_date": "2022-03-04",
    "end_date": null,
    "elevation": "low",
    "threshold": null,
    "elevation line_visualization": null
  },
  {
    "id": "IT-23-AO-16",
    "start_date": "2022-03-04",
    "end_date": null,
    "elevation": "low",
    "threshold": null,
    "elevation line_visualization": null
  },
  {
    "id": "IT-23-AO-02",
    "start_date": "2022-03-04",
    "end_date": null,
    "elevation": "low",
    "threshold": null,
    "elevation line_visualization": null
  },
  {
    "id": "IT-23-AO-19",
    "start_date": "2022-03-04",
    "end_date": null,
    "elevation": "low",
    "threshold": null,
    "elevation line_visualization": null
  },
  {
    "id": "IT-23-AO-03",
    "start_date": "2022-03-04",
    "end_date": null,
    "elevation": "low",
    "threshold": null,
    "elevation line_visualization": null
  },
  {
    "id": "IT-23-AO-12",
    "start_date": "2022-03-04",
    "end_date": null,
    "elevation": "low",
    "threshold": null,
    "elevation line_visualization": null
  },
  {
    "id": "IT-23-AO-13",
    "start_date": "2022-03-04",
    "end_date": null,
    "elevation": "low",
    "threshold": null,
    "elevation line_visualization": null
  },
  {
    "id": "IT-23-AO-21",
    "start_date": "2022-03-04",
    "end_date": null,
    "elevation": "low",
    "threshold": null,
    "elevation line_visualization": null
  },
  {
    "id": "IT-23-AO-04",
    "start_date": "2022-03-04",
    "end_date": null,
    "elevation": "low",
    "threshold": null,
    "elevation line_visualization": null
  },
  {
    "id": "IT-23-AO-09",
    "start_date": "2022-03-04",
    "end_date": null,
    "elevation": "low",
    "threshold": null,
    "elevation line_visualization": null
  },
  {
    "id": "IT-23-AO-08",
    "start_date": "2022-03-04",
    "end_date": null,
    "elevation": "low",
    "threshold": null,
    "elevation line_visualization": null
  },
  {
    "id": "IT-23-AO-07",
    "start_date": "2022-03-04",
    "end_date": null,
    "elevation": "low",
    "threshold": null,
    "elevation line_visualization": null
  },
  {
    "id": "IT-23-AO-10",
    "start_date": "2022-03-04",
    "end_date": null,
    "elevation": "low",
    "threshold": null,
    "elevation line_visualization": null
  },
  {
    "id": "IT-23-AO-11",
    "start_date": "2022-03-04",
    "end_date": null,
    "elevation": "low",
    "threshold": null,
    "elevation line_visualization": null
  },
  {
    "id": "IT-23-AO-26",
    "start_date": "2022-03-04",
    "end_date": null,
    "elevation": "low",
    "threshold": null,
    "elevation line_visualization": null
  },
  {
    "id": "IT-23-AO-24",
    "start_date": "2022-03-04",
    "end_date": null,
    "elevation": "low",
    "threshold": null,
    "elevation line_visualization": null
  },
  {
    "id": "IT-23-AO-05",
    "start_date": "2022-03-04",
    "end_date": null,
    "elevation": "low",
    "threshold": null,
    "elevation line_visualization": null
  },
  {
    "id": "IT-23-AO-25",
    "start_date": "2022-03-04",
    "end_date": null,
    "elevation": "low",
    "threshold": null,
    "elevation line_visualization": null
  },
  {
    "id": "IT-23-AO-19",
    "start_date": null,
    "end_date": "2022-03-04",
    "elevation": "high",
    "threshold": null,
    "elevation line_visualization": 2000
  },
  {
    "id": "IT-23-AO-12",
    "start_date": null,
    "end_date": "2022-03-04",
    "elevation": "high",
    "threshold": null,
    "elevation line_visualization": 2000
  },
  {
    "id": "IT-23-AO-09",
    "start_date": null,
    "end_date": "2022-03-04",
    "elevation": "high",
    "threshold": null,
    "elevation line_visualization": 2000
  },
  {
    "id": "IT-23-AO-05",
    "start_date": null,
    "end_date": "2022-03-04",
    "elevation": "high",
    "threshold": null,
    "elevation line_visualization": 2000
  },
  {
    "id": "IT-23-AO-06",
    "start_date": null,
    "end_date": "2022-03-04",
    "elevation": "high",
    "threshold": null,
    "elevation line_visualization": 2000
  },
  {
    "id": "IT-23-AO-07",
    "start_date": null,
    "end_date": "2022-03-04",
    "elevation": "high",
    "threshold": null,
    "elevation line_visualization": 2000
  },
  {
    "id": "IT-23-AO-08",
    "start_date": null,
    "end_date": "2022-03-04",
    "elevation": "high",
    "threshold": null,
    "elevation line_visualization": 2000
  },
  {
    "id": "IT-23-AO-11",
    "start_date": null,
    "end_date": "2022-03-04",
    "elevation": "high",
    "threshold": null,
    "elevation line_visualization": 2000
  },
  {
    "id": "IT-23-AO-10",
    "start_date": null,
    "end_date": "2022-03-04",
    "elevation": "high",
    "threshold": null,
    "elevation line_visualization": 2000
  },
  {
    "id": "IT-23-AO-16",
    "start_date": null,
    "end_date": "2022-03-04",
    "elevation": "high",
    "threshold": null,
    "elevation line_visualization": 2000
  },
  {
    "id": "IT-23-AO-15",
    "start_date": null,
    "end_date": "2022-03-04",
    "elevation": "high",
    "threshold": null,
    "elevation line_visualization": 2000
  },
  {
    "id": "IT-23-AO-17",
    "start_date": null,
    "end_date": "2022-03-04",
    "elevation": "high",
    "threshold": null,
    "elevation line_visualization": 2000
  },
  {
    "id": "IT-23-AO-04",
    "start_date": null,
    "end_date": "2022-03-04",
    "elevation": "high",
    "threshold": null,
    "elevation line_visualization": 2000
  },
  {
    "id": "IT-23-AO-01",
    "start_date": null,
    "end_date": "2022-03-04",
    "elevation": "high",
    "threshold": null,
    "elevation line_visualization": 2000
  },
  {
    "id": "IT-23-AO-02",
    "start_date": null,
    "end_date": "2022-03-04",
    "elevation": "high",
    "threshold": null,
    "elevation line_visualization": 2000
  },
  {
    "id": "IT-23-AO-03",
    "start_date": null,
    "end_date": "2022-03-04",
    "elevation": "high",
    "threshold": null,
    "elevation line_visualization": 2000
  },
  {
    "id": "IT-23-AO-18",
    "start_date": null,
    "end_date": "2022-03-04",
    "elevation": "high",
    "threshold": null,
    "elevation line_visualization": 2000
  },
  {
    "id": "IT-23-AO-20",
    "start_date": null,
    "end_date": "2022-03-04",
    "elevation": "high",
    "threshold": null,
    "elevation line_visualization": 2000
  },
  {
    "id": "IT-23-AO-13",
    "start_date": null,
    "end_date": "2022-03-04",
    "elevation": "high",
    "threshold": null,
    "elevation line_visualization": 2000
  },
  {
    "id": "IT-23-AO-21",
    "start_date": null,
    "end_date": "2022-03-04",
    "elevation": "high",
    "threshold": null,
    "elevation line_visualization": 2000
  },
  {
    "id": "IT-23-AO-25",
    "start_date": null,
    "end_date": "2022-03-04",
    "elevation": "high",
    "threshold": null,
    "elevation line_visualization": 2000
  },
  {
    "id": "IT-23-AO-23",
    "start_date": null,
    "end_date": "2022-03-04",
    "elevation": "high",
    "threshold": null,
    "elevation line_visualization": 2000
  },
  {
    "id": "IT-23-AO-24",
    "start_date": null,
    "end_date": "2022-03-04",
    "elevation": "high",
    "threshold": null,
    "elevation line_visualization": 2000
  },
  {
    "id": "IT-23-AO-26",
    "start_date": null,
    "end_date": "2022-03-04",
    "elevation": "high",
    "threshold": null,
    "elevation line_visualization": 2000
  },
  {
    "id": "IT-23-AO-19",
    "start_date": null,
    "end_date": "2022-03-04",
    "elevation": "low",
    "threshold": null,
    "elevation line_visualization": 2000
  },
  {
    "id": "IT-23-AO-12",
    "start_date": null,
    "end_date": "2022-03-04",
    "elevation": "low",
    "threshold": null,
    "elevation line_visualization": 2000
  },
  {
    "id": "IT-23-AO-09",
    "start_date": null,
    "end_date": "2022-03-04",
    "elevation": "low",
    "threshold": null,
    "elevation line_visualization": 2000
  },
  {
    "id": "IT-23-AO-05",
    "start_date": null,
    "end_date": "2022-03-04",
    "elevation": "low",
    "threshold": null,
    "elevation line_visualization": 2000
  },
  {
    "id": "IT-23-AO-06",
    "start_date": null,
    "end_date": "2022-03-04",
    "elevation": "low",
    "threshold": null,
    "elevation line_visualization": 2000
  },
  {
    "id": "IT-23-AO-07",
    "start_date": null,
    "end_date": "2022-03-04",
    "elevation": "low",
    "threshold": null,
    "elevation line_visualization": 2000
  },
  {
    "id": "IT-23-AO-08",
    "start_date": null,
    "end_date": "2022-03-04",
    "elevation": "low",
    "threshold": null,
    "elevation line_visualization": 2000
  },
  {
    "id": "IT-23-AO-11",
    "start_date": null,
    "end_date": "2022-03-04",
    "elevation": "low",
    "threshold": null,
    "elevation line_visualization": 2000
  },
  {
    "id": "IT-23-AO-10",
    "start_date": null,
    "end_date": "2022-03-04",
    "elevation": "low",
    "threshold": null,
    "elevation line_visualization": 2000
  },
  {
    "id": "IT-23-AO-16",
    "start_date": null,
    "end_date": "2022-03-04",
    "elevation": "low",
    "threshold": null,
    "elevation line_visualization": 2000
  },
  {
    "id": "IT-23-AO-14",
    "start_date": null,
    "end_date": "2022-03-04",
    "elevation": "low",
    "threshold": null,
    "elevation line_visualization": 2000
  },
  {
    "id": "IT-23-AO-15",
    "start_date": null,
    "end_date": "2022-03-04",
    "elevation": "low",
    "threshold": null,
    "elevation line_visualization": 2000
  },
  {
    "id": "IT-23-AO-17",
    "start_date": null,
    "end_date": "2022-03-04",
    "elevation": "low",
    "threshold": null,
    "elevation line_visualization": 2000
  },
  {
    "id": "IT-23-AO-04",
    "start_date": null,
    "end_date": "2022-03-04",
    "elevation": "low",
    "threshold": null,
    "elevation line_visualization": 2000
  },
  {
    "id": "IT-23-AO-01",
    "start_date": null,
    "end_date": "2022-03-04",
    "elevation": "low",
    "threshold": null,
    "elevation line_visualization": 2000
  },
  {
    "id": "IT-23-AO-02",
    "start_date": null,
    "end_date": "2022-03-04",
    "elevation": "low",
    "threshold": null,
    "elevation line_visualization": 2000
  },
  {
    "id": "IT-23-AO-03",
    "start_date": null,
    "end_date": "2022-03-04",
    "elevation": "low",
    "threshold": null,
    "elevation line_visualization": 2000
  },
  {
    "id": "IT-23-AO-18",
    "start_date": null,
    "end_date": "2022-03-04",
    "elevation": "low",
    "threshold": null,
    "elevation line_visualization": 2000
  },
  {
    "id": "IT-23-AO-20",
    "start_date": null,
    "end_date": "2022-03-04",
    "elevation": "low",
    "threshold": null,
    "elevation line_visualization": 2000
  },
  {
    "id": "IT-23-AO-13",
    "start_date": null,
    "end_date": "2022-03-04",
    "elevation": "low",
    "threshold": null,
    "elevation line_visualization": 2000
  },
  {
    "id": "IT-23-AO-21",
    "start_date": null,
    "end_date": "2022-03-04",
    "elevation": "low",
    "threshold": null,
    "elevation line_visualization": 2000
  },
  {
    "id": "IT-23-AO-25",
    "start_date": null,
    "end_date": "2022-03-04",
    "elevation": "low",
    "threshold": null,
    "elevation line_visualization": 2000
  },
  {
    "id": "IT-23-AO-23",
    "start_date": null,
    "end_date": "2022-03-04",
    "elevation": "low",
    "threshold": null,
    "elevation line_visualization": 2000
  },
  {
    "id": "IT-23-AO-24",
    "start_date": null,
    "end_date": "2022-03-04",
    "elevation": "low",
    "threshold": null,
    "elevation line_visualization": 2000
  },
  {
    "id": "IT-23-AO-22",
    "start_date": null,
    "end_date": "2022-03-04",
    "elevation": "low",
    "threshold": null,
    "elevation line_visualization": 2000
  },
  {
    "id": "IT-23-AO-26",
    "start_date": null,
    "end_date": "2022-03-04",
    "elevation": "low",
    "threshold": null,
    "elevation line_visualization": 2000
  },
  {
    "id": "IT-23-AO-14",
    "start_date": null,
    "end_date": "2022-03-04",
    "elevation": "high",
    "threshold": null,
    "elevation line_visualization": 2000
  },
  {
    "id": "IT-23-AO-22",
    "start_date": null,
    "end_date": "2022-03-04",
    "elevation": "high",
    "threshold": null,
    "elevation line_visualization": 2000
  }
]