{
  "$schema": "http://json-schema.org/draft-06/schema#",
  "type": "object",
  "properties": {
    "features": {
      "type": "array",
      "items": {
        "type": "object",
        "properties": {
          "properties": {
            "type": "object",
            "properties": {
              "id": { "type": "string" },
              "aws": {
                "type": "array",
                "items": {
                  "description": "Data about avalanche warning service",
                  "type": "object",
                  "properties": {
                    "name": { "type": "string" },
                    "url": {
                      "description": "Websites by language",
                      "type": "object",
                      "items": { "type": "string" }
                    }
                  },
                  "required": ["name", "url"]
                }
              }
            },
            "required": ["id", "aws"]
          }
        }
      }
    }
  }
}
